5-18-23_Exp1/TEK00025.CSV

Model,TBS1052C
Firmware Version,v2015-08-04-prequal4ch70_v1.3

Point Format,Y
Horizontal Units,S
Horizontal Scale,0.004
Sample Interval,3.2e-06
Filter Frequency,2e+08
Record Length,20000
Gating,0.0% to 100.0%
Probe Attenuation,10
Vertical Units,V
Vertical Offset,0
Vertical Scale,0.0344
Label,
TIME,CH2
-5.1520e-03,0.00486975
-5.1488e-03,0.00570287
-5.1456e-03,0.00542337
-5.1424e-03,0.00638012
-5.1392e-03,0.00539112
-5.1360e-03,0.00714875
-5.1328e-03,0.0071165
-5.1296e-03,0.00596625
-5.1264e-03,0.00612212
-5.1232e-03,0.0061275
-5.1200e-03,0.00716487
-5.1168e-03,0.00598775
-5.1136e-03,0.00706812
-5.1104e-03,0.00533737
-5.1072e-03,0.006407
-5.1040e-03,0.0059125
-5.1008e-03,0.006106
-5.0976e-03,0.00498262
-5.0944e-03,0.00648762
-5.0912e-03,0.00557387
-5.0880e-03,0.00715412
-5.0848e-03,0.00636937
-5.0816e-03,0.005289
-5.0784e-03,0.00498262
-5.0752e-03,0.00672412
-5.0720e-03,0.00550937
-5.0688e-03,0.00668112
-5.0656e-03,0.00727775
-5.0624e-03,0.00620812
-5.0592e-03,0.00592862
-5.0560e-03,0.00540187
-5.0528e-03,0.005676
-5.0496e-03,0.005934
-5.0464e-03,0.00677787
-5.0432e-03,0.00572975
-5.0400e-03,0.007568
-5.0368e-03,0.00635325
-5.0336e-03,0.00706812
-5.0304e-03,0.00562225
-5.0272e-03,0.00648762
-5.0240e-03,0.00553625
-5.0208e-03,0.00667037
-5.0176e-03,0.00644462
-5.0144e-03,0.00583187
-5.0112e-03,0.0049665
-5.0080e-03,0.00628875
-5.0048e-03,0.00629412
-5.0016e-03,0.0052675
-4.9984e-03,0.00559
-4.9952e-03,0.00555237
-4.9920e-03,0.0059985
-4.9888e-03,0.00447737
-4.9856e-03,0.005719
-4.9824e-03,0.00478375
-4.9792e-03,0.00603612
-4.9760e-03,0.0052245
-4.9728e-03,0.00592325
-4.9696e-03,0.0051815
-4.9664e-03,0.00630487
-4.9632e-03,0.00613287
-4.9600e-03,0.00534275
-4.9568e-03,0.0060845
-4.9536e-03,0.00541262
-4.9504e-03,0.00659512
-4.9472e-03,0.00633175
-4.9440e-03,0.00654137
-4.9408e-03,0.00562762
-4.9376e-03,0.00671337
-4.9344e-03,0.006149
-4.9312e-03,0.00612212
-4.9280e-03,0.00634787
-4.9248e-03,0.0059985
-4.9216e-03,0.00681012
-4.9184e-03,0.00527825
-4.9152e-03,0.00633175
-4.9120e-03,0.00548787
-4.9088e-03,0.00660587
-4.9056e-03,0.0059985
-4.9024e-03,0.00653062
-4.8992e-03,0.00682625
-4.8960e-03,0.0056545
-4.8928e-03,0.006407
-4.8896e-03,0.00587487
-4.8864e-03,0.0061705
-4.8832e-03,0.00489125
-4.8800e-03,0.00732075
-4.8768e-03,0.00650912
-4.8736e-03,0.00638012
-4.8704e-03,0.00512237
-4.8672e-03,0.00613287
-4.8640e-03,0.00661662
-4.8608e-03,0.00531587
-4.8576e-03,0.00603075
-4.8544e-03,0.00631025
-4.8512e-03,0.00726162
-4.8480e-03,0.005848
-4.8448e-03,0.007138
-4.8416e-03,0.00543412
-4.8384e-03,0.00729387
-4.8352e-03,0.00628337
-4.8320e-03,0.00596087
-4.8288e-03,0.00487512
-4.8256e-03,0.006794
-4.8224e-03,0.0066005
-4.8192e-03,0.00612212
-4.8160e-03,0.0062135
-4.8128e-03,0.00554162
-4.8096e-03,0.005676
-4.8064e-03,0.00657362
-4.8032e-03,0.00628337
-4.8000e-03,0.0072455
-4.7968e-03,0.00799262
-4.7936e-03,0.00622425
-4.7904e-03,0.00738525
-4.7872e-03,0.00622425
-4.7840e-03,0.00622962
-4.7808e-03,0.0061275
-4.7776e-03,0.00583187
-4.7744e-03,0.0057835
-4.7712e-03,0.0071165
-4.7680e-03,0.00553625
-4.7648e-03,0.00708962
-4.7616e-03,0.00613287
-4.7584e-03,0.0066435
-4.7552e-03,0.00557387
-4.7520e-03,0.0065145
-4.7488e-03,0.006493
-4.7456e-03,0.00601462
-4.7424e-03,0.0067725
-4.7392e-03,0.00559
-4.7360e-03,0.00643387
-4.7328e-03,0.0059985
-4.7296e-03,0.0077615
-4.7264e-03,0.00761637
-4.7232e-03,0.006321
-4.7200e-03,0.00636937
-4.7168e-03,0.00577812
-4.7136e-03,0.0061275
-4.7104e-03,0.00563837
-4.7072e-03,0.00540187
-4.7040e-03,0.00552012
-4.7008e-03,0.00641775
-4.6976e-03,0.004945
-4.6944e-03,0.00583187
-4.6912e-03,0.00551475
-4.6880e-03,0.00539112
-4.6848e-03,0.00572975
-4.6816e-03,0.00684775
-4.6784e-03,0.0061275
-4.6752e-03,0.0067725
-4.6720e-03,0.00587487
-4.6688e-03,0.00664887
-4.6656e-03,0.00603075
-4.6624e-03,0.00610062
-4.6592e-03,0.00644462
-4.6560e-03,0.00539112
-4.6528e-03,0.0059555
-4.6496e-03,0.00584262
-4.6464e-03,0.00754112
-4.6432e-03,0.00596087
-4.6400e-03,0.00742825
-4.6368e-03,0.00602
-4.6336e-03,0.00664887
-4.6304e-03,0.00595012
-4.6272e-03,0.0062995
-4.6240e-03,0.00463862
-4.6208e-03,0.00601462
-4.6176e-03,0.00540187
-4.6144e-03,0.0057835
-4.6112e-03,0.00527825
-4.6080e-03,0.00616512
-4.6048e-03,0.00569212
-4.6016e-03,0.0052675
-4.5984e-03,0.00676175
-4.5952e-03,0.00674025
-4.5920e-03,0.00647687
-4.5888e-03,0.00496112
-4.5856e-03,0.00674562
-4.5824e-03,0.00579425
-4.5792e-03,0.00600925
-4.5760e-03,0.005418
-4.5728e-03,0.00635325
-4.5696e-03,0.00696062
-4.5664e-03,0.00463862
-4.5632e-03,0.00533737
-4.5600e-03,0.00574587
-4.5568e-03,0.00608987
-4.5536e-03,0.00460637
-4.5504e-03,0.00614362
-4.5472e-03,0.00629412
-4.5440e-03,0.00617587
-4.5408e-03,0.00612212
-4.5376e-03,0.00618662
-4.5344e-03,0.00643387
-4.5312e-03,0.00514387
-4.5280e-03,0.00665962
-4.5248e-03,0.005805
-4.5216e-03,0.00645537
-4.5184e-03,0.00654137
-4.5152e-03,0.00716487
-4.5120e-03,0.00583187
-4.5088e-03,0.00604687
-4.5056e-03,0.00572975
-4.5024e-03,0.0062995
-4.4992e-03,0.00648225
-4.4960e-03,0.00679937
-4.4928e-03,0.0053535
-4.4896e-03,0.00552012
-4.4864e-03,0.00617587
-4.4832e-03,0.0045795
-4.4800e-03,0.00592325
-4.4768e-03,0.00577275
-4.4736e-03,0.00615975
-4.4704e-03,0.00491812
-4.4672e-03,0.00639625
-4.4640e-03,0.00491812
-4.4608e-03,0.00516537
-4.4576e-03,0.00579425
-4.4544e-03,0.00672412
-4.4512e-03,0.0066865
-4.4480e-03,0.0066435
-4.4448e-03,0.0066435
-4.4416e-03,0.00523525
-4.4384e-03,0.00595012
-4.4352e-03,0.0061705
-4.4320e-03,0.00684237
-4.4288e-03,0.00502562
-4.4256e-03,0.0062135
-4.4224e-03,0.005633
-4.4192e-03,0.0071595
-4.4160e-03,0.00639087
-4.4128e-03,0.0074175
-4.4096e-03,0.00624575
-4.4064e-03,0.00602537
-4.4032e-03,0.00531587
-4.4000e-03,0.00605225
-4.3968e-03,0.00699825
-4.3936e-03,0.005633
-4.3904e-03,0.00651987
-4.3872e-03,0.006063
-4.3840e-03,0.007052
-4.3808e-03,0.00547175
-4.3776e-03,0.00628337
-4.3744e-03,0.0045795
-4.3712e-03,0.00625112
-4.3680e-03,0.0058695
-4.3648e-03,0.00671337
-4.3616e-03,0.00572975
-4.3584e-03,0.00729925
-4.3552e-03,0.00715412
-4.3520e-03,0.00631562
-4.3488e-03,0.0061705
-4.3456e-03,0.0060415
-4.3424e-03,0.00721325
-4.3392e-03,0.00598775
-4.3360e-03,0.00687462
-4.3328e-03,0.00514387
-4.3296e-03,0.005977
-4.3264e-03,0.00548787
-4.3232e-03,0.00632637
-4.3200e-03,0.0065145
-4.3168e-03,0.00772925
-4.3136e-03,0.00688537
-4.3104e-03,0.005719
-4.3072e-03,0.00669187
-4.3040e-03,0.00544487
-4.3008e-03,0.00545025
-4.2976e-03,0.00611137
-4.2944e-03,0.0067725
-4.2912e-03,0.00563837
-4.2880e-03,0.00612212
-4.2848e-03,0.0053965
-4.2816e-03,0.00644462
-4.2784e-03,0.00588025
-4.2752e-03,0.0066435
-4.2720e-03,0.00632637
-4.2688e-03,0.007267
-4.2656e-03,0.00783675
-4.2624e-03,0.00568137
-4.2592e-03,0.0063855
-4.2560e-03,0.0062135
-4.2528e-03,0.00633712
-4.2496e-03,0.00556312
-4.2464e-03,0.007224
-4.2432e-03,0.00758412
-4.2400e-03,0.0061705
-4.2368e-03,0.006493
-4.2336e-03,0.00592325
-4.2304e-03,0.00676175
-4.2272e-03,0.00507937
-4.2240e-03,0.00682625
-4.2208e-03,0.00593937
-4.2176e-03,0.00646075
-4.2144e-03,0.0060415
-4.2112e-03,0.00698212
-4.2080e-03,0.00550937
-4.2048e-03,0.0075035
-4.2016e-03,0.00677787
-4.1984e-03,0.00660587
-4.1952e-03,0.0053965
-4.1920e-03,0.00530512
-4.1888e-03,0.00454187
-4.1856e-03,0.00605762
-4.1824e-03,0.00668112
-4.1792e-03,0.0061705
-4.1760e-03,0.00612212
-4.1728e-03,0.00571362
-4.1696e-03,0.00725625
-4.1664e-03,0.00567062
-4.1632e-03,0.00731537
-4.1600e-03,0.00613825
-4.1568e-03,0.00722937
-4.1536e-03,0.0067295
-4.1504e-03,0.00682087
-4.1472e-03,0.0054825
-4.1440e-03,0.00688537
-4.1408e-03,0.006708
-4.1376e-03,0.00631562
-4.1344e-03,0.0065145
-4.1312e-03,0.00676175
-4.1280e-03,0.00751962
-4.1248e-03,0.0063855
-4.1216e-03,0.0064715
-4.1184e-03,0.00584262
-4.1152e-03,0.0064285
-4.1120e-03,0.00527825
-4.1088e-03,0.00655212
-4.1056e-03,0.00550937
-4.1024e-03,0.007267
-4.0992e-03,0.00589637
-4.0960e-03,0.0064285
-4.0928e-03,0.00528362
-4.0896e-03,0.0068585
-4.0864e-03,0.00633712
-4.0832e-03,0.0060845
-4.0800e-03,0.00654137
-4.0768e-03,0.00673487
-4.0736e-03,0.00645537
-4.0704e-03,0.00734225
-4.0672e-03,0.00768625
-4.0640e-03,0.00560612
-4.0608e-03,0.00644462
-4.0576e-03,0.00560075
-4.0544e-03,0.00596625
-4.0512e-03,0.00543412
-4.0480e-03,0.00597162
-4.0448e-03,0.00671875
-4.0416e-03,0.00573512
-4.0384e-03,0.0060845
-4.0352e-03,0.0046655
-4.0320e-03,0.0062995
-4.0288e-03,0.005805
-4.0256e-03,0.00656825
-4.0224e-03,0.00574587
-4.0192e-03,0.00564912
-4.0160e-03,0.00658975
-4.0128e-03,0.00584262
-4.0096e-03,0.0057835
-4.0064e-03,0.00667575
-4.0032e-03,0.0074175
-4.0000e-03,0.005977
-3.9968e-03,0.00723475
-3.9936e-03,0.00543412
-3.9904e-03,0.00613825
-3.9872e-03,0.00516
-3.9840e-03,0.006063
-3.9808e-03,0.00528362
-3.9776e-03,0.00601462
-3.9744e-03,0.00575125
-3.9712e-03,0.00697137
-3.9680e-03,0.00527825
-3.9648e-03,0.0069875
-3.9616e-03,0.00514387
-3.9584e-03,0.0059555
-3.9552e-03,0.00572437
-3.9520e-03,0.0068585
-3.9488e-03,0.00670262
-3.9456e-03,0.00617587
-3.9424e-03,0.00620812
-3.9392e-03,0.0063425
-3.9360e-03,0.00734225
-3.9328e-03,0.00568137
-3.9296e-03,0.00773462
-3.9264e-03,0.00697137
-3.9232e-03,0.00688537
-3.9200e-03,0.00655212
-3.9168e-03,0.00684775
-3.9136e-03,0.0065575
-3.9104e-03,0.00536425
-3.9072e-03,0.00611137
-3.9040e-03,0.00624575
-3.9008e-03,0.00671337
-3.8976e-03,0.00535887
-3.8944e-03,0.00689612
-3.8912e-03,0.00514387
-3.8880e-03,0.005676
-3.8848e-03,0.00536962
-3.8816e-03,0.006278
-3.8784e-03,0.00514925
-3.8752e-03,0.00677787
-3.8720e-03,0.0061275
-3.8688e-03,0.0055685
-3.8656e-03,0.0048805
-3.8624e-03,0.00565987
-3.8592e-03,0.00511162
-3.8560e-03,0.00502025
-3.8528e-03,0.0061705
-3.8496e-03,0.00542337
-3.8464e-03,0.00588025
-3.8432e-03,0.00557387
-3.8400e-03,0.00608987
-3.8368e-03,0.0051815
-3.8336e-03,0.006923
-3.8304e-03,0.00641237
-3.8272e-03,0.0064285
-3.8240e-03,0.00625112
-3.8208e-03,0.00549862
-3.8176e-03,0.00526212
-3.8144e-03,0.00592325
-3.8112e-03,0.00587487
-3.8080e-03,0.00627262
-3.8048e-03,0.0063855
-3.8016e-03,0.00610062
-3.7984e-03,0.0069445
-3.7952e-03,0.00633712
-3.7920e-03,0.00762175
-3.7888e-03,0.006321
-3.7856e-03,0.0068585
-3.7824e-03,0.005547
-3.7792e-03,0.0065575
-3.7760e-03,0.0067725
-3.7728e-03,0.00576737
-3.7696e-03,0.00612212
-3.7664e-03,0.00541262
-3.7632e-03,0.00552012
-3.7600e-03,0.00484825
-3.7568e-03,0.00649837
-3.7536e-03,0.0053535
-3.7504e-03,0.00530512
-3.7472e-03,0.00572975
-3.7440e-03,0.0056975
-3.7408e-03,0.00641775
-3.7376e-03,0.00547175
-3.7344e-03,0.0053535
-3.7312e-03,0.00628875
-3.7280e-03,0.007783
-3.7248e-03,0.00644462
-3.7216e-03,0.0075465
-3.7184e-03,0.00620812
-3.7152e-03,0.0059125
-3.7120e-03,0.00502562
-3.7088e-03,0.00601462
-3.7056e-03,0.0050955
-3.7024e-03,0.0059125
-3.6992e-03,0.00600925
-3.6960e-03,0.0058695
-3.6928e-03,0.00596087
-3.6896e-03,0.00514387
-3.6864e-03,0.00610062
-3.6832e-03,0.00482137
-3.6800e-03,0.00627262
-3.6768e-03,0.00577812
-3.6736e-03,0.00712187
-3.6704e-03,0.00618662
-3.6672e-03,0.00602537
-3.6640e-03,0.00534812
-3.6608e-03,0.00712725
-3.6576e-03,0.00671337
-3.6544e-03,0.00585337
-3.6512e-03,0.006235
-3.6480e-03,0.00592325
-3.6448e-03,0.00643925
-3.6416e-03,0.00529437
-3.6384e-03,0.00565987
-3.6352e-03,0.00600387
-3.6320e-03,0.0064285
-3.6288e-03,0.005418
-3.6256e-03,0.00627262
-3.6224e-03,0.00576737
-3.6192e-03,0.00732612
-3.6160e-03,0.00608987
-3.6128e-03,0.00620275
-3.6096e-03,0.00507937
-3.6064e-03,0.00658437
-3.6032e-03,0.00648225
-3.6000e-03,0.00616512
-3.5968e-03,0.00579425
-3.5936e-03,0.005891
-3.5904e-03,0.00650375
-3.5872e-03,0.0059985
-3.5840e-03,0.005891
-3.5808e-03,0.00428925
-3.5776e-03,0.00629412
-3.5744e-03,0.0051815
-3.5712e-03,0.00562762
-3.5680e-03,0.00488587
-3.5648e-03,0.00588025
-3.5616e-03,0.00534812
-3.5584e-03,0.00560075
-3.5552e-03,0.00609525
-3.5520e-03,0.00703587
-3.5488e-03,0.006063
-3.5456e-03,0.0054395
-3.5424e-03,0.005633
-3.5392e-03,0.00536425
-3.5360e-03,0.00490737
-3.5328e-03,0.00522987
-3.5296e-03,0.00520837
-3.5264e-03,0.00452575
-3.5232e-03,0.00672412
-3.5200e-03,0.00586412
-3.5168e-03,0.005977
-3.5136e-03,0.006106
-3.5104e-03,0.00659512
-3.5072e-03,0.00636937
-3.5040e-03,0.0050955
-3.5008e-03,0.00585875
-3.4976e-03,0.005504
-3.4944e-03,0.0064285
-3.4912e-03,0.00507937
-3.4880e-03,0.00717562
-3.4848e-03,0.00622425
-3.4816e-03,0.0069015
-3.4784e-03,0.00620812
-3.4752e-03,0.005977
-3.4720e-03,0.00579962
-3.4688e-03,0.00622962
-3.4656e-03,0.00478375
-3.4624e-03,0.00532662
-3.4592e-03,0.00657362
-3.4560e-03,0.005762
-3.4528e-03,0.00704662
-3.4496e-03,0.00682625
-3.4464e-03,0.00671337
-3.4432e-03,0.00590175
-3.4400e-03,0.00736912
-3.4368e-03,0.00558462
-3.4336e-03,0.00587487
-3.4304e-03,0.00552012
-3.4272e-03,0.0055255
-3.4240e-03,0.00506325
-3.4208e-03,0.00665425
-3.4176e-03,0.007525
-3.4144e-03,0.00628875
-3.4112e-03,0.00729925
-3.4080e-03,0.00635862
-3.4048e-03,0.0074605
-3.4016e-03,0.005375
-3.3984e-03,0.00598237
-3.3952e-03,0.005633
-3.3920e-03,0.00553625
-3.3888e-03,0.00639625
-3.3856e-03,0.00633712
-3.3824e-03,0.00681012
-3.3792e-03,0.00534812
-3.3760e-03,0.006235
-3.3728e-03,0.00469237
-3.3696e-03,0.00592862
-3.3664e-03,0.00532662
-3.3632e-03,0.00585337
-3.3600e-03,0.0051385
-3.3568e-03,0.00667575
-3.3536e-03,0.00635325
-3.3504e-03,0.00521375
-3.3472e-03,0.0056545
-3.3440e-03,0.006708
-3.3408e-03,0.00563837
-3.3376e-03,0.005848
-3.3344e-03,0.00641775
-3.3312e-03,0.00535887
-3.3280e-03,0.00600925
-3.3248e-03,0.00475687
-3.3216e-03,0.00569212
-3.3184e-03,0.00595012
-3.3152e-03,0.006751
-3.3120e-03,0.005461
-3.3088e-03,0.00696062
-3.3056e-03,0.00600387
-3.3024e-03,0.00581575
-3.2992e-03,0.00535887
-3.2960e-03,0.00613825
-3.2928e-03,0.0047945
-3.2896e-03,0.0067725
-3.2864e-03,0.00720787
-3.2832e-03,0.00688
-3.2800e-03,0.00688
-3.2768e-03,0.00579425
-3.2736e-03,0.00698212
-3.2704e-03,0.00614362
-3.2672e-03,0.0070735
-3.2640e-03,0.00607375
-3.2608e-03,0.00595012
-3.2576e-03,0.00540187
-3.2544e-03,0.006665
-3.2512e-03,0.00602537
-3.2480e-03,0.00527287
-3.2448e-03,0.00571362
-3.2416e-03,0.005504
-3.2384e-03,0.0058265
-3.2352e-03,0.00447737
-3.2320e-03,0.00550937
-3.2288e-03,0.00474612
-3.2256e-03,0.00646612
-3.2224e-03,0.00564912
-3.2192e-03,0.00593937
-3.2160e-03,0.0056975
-3.2128e-03,0.00631562
-3.2096e-03,0.00641775
-3.2064e-03,0.0056115
-3.2032e-03,0.00636937
-3.2000e-03,0.0056975
-3.1968e-03,0.0059555
-3.1936e-03,0.0057835
-3.1904e-03,0.00640162
-3.1872e-03,0.00534275
-3.1840e-03,0.0060845
-3.1808e-03,0.00502025
-3.1776e-03,0.005504
-3.1744e-03,0.00522987
-3.1712e-03,0.00712725
-3.1680e-03,0.0067295
-3.1648e-03,0.0073745
-3.1616e-03,0.00683162
-3.1584e-03,0.00634787
-3.1552e-03,0.00674562
-3.1520e-03,0.00544487
-3.1488e-03,0.00579425
-3.1456e-03,0.00511162
-3.1424e-03,0.00543412
-3.1392e-03,0.0060415
-3.1360e-03,0.00647687
-3.1328e-03,0.00557387
-3.1296e-03,0.00724012
-3.1264e-03,0.00600925
-3.1232e-03,0.0061275
-3.1200e-03,0.00526212
-3.1168e-03,0.00663812
-3.1136e-03,0.00530512
-3.1104e-03,0.00628337
-3.1072e-03,0.00636937
-3.1040e-03,0.00641237
-3.1008e-03,0.00569212
-3.0976e-03,0.006149
-3.0944e-03,0.00615975
-3.0912e-03,0.00506325
-3.0880e-03,0.00592862
-3.0848e-03,0.0059125
-3.0816e-03,0.0058695
-3.0784e-03,0.00588025
-3.0752e-03,0.0060415
-3.0720e-03,0.00502025
-3.0688e-03,0.00681012
-3.0656e-03,0.00583187
-3.0624e-03,0.0067295
-3.0592e-03,0.00586412
-3.0560e-03,0.00694987
-3.0528e-03,0.0069015
-3.0496e-03,0.006235
-3.0464e-03,0.0060845
-3.0432e-03,0.00590175
-3.0400e-03,0.00649837
-3.0368e-03,0.0052675
-3.0336e-03,0.00682087
-3.0304e-03,0.00618125
-3.0272e-03,0.00591787
-3.0240e-03,0.00536425
-3.0208e-03,0.00631562
-3.0176e-03,0.00586412
-3.0144e-03,0.00554162
-3.0112e-03,0.00646612
-3.0080e-03,0.00633175
-3.0048e-03,0.00699825
-3.0016e-03,0.00566525
-2.9984e-03,0.00705737
-2.9952e-03,0.00620812
-2.9920e-03,0.00573512
-2.9888e-03,0.00479987
-2.9856e-03,0.00552012
-2.9824e-03,0.00617587
-2.9792e-03,0.00619737
-2.9760e-03,0.00656825
-2.9728e-03,0.00579425
-2.9696e-03,0.007138
-2.9664e-03,0.00578887
-2.9632e-03,0.00734225
-2.9600e-03,0.00588562
-2.9568e-03,0.00733687
-2.9536e-03,0.00700362
-2.9504e-03,0.0072025
-2.9472e-03,0.00553625
-2.9440e-03,0.00696062
-2.9408e-03,0.00658975
-2.9376e-03,0.0061275
-2.9344e-03,0.00643387
-2.9312e-03,0.00648225
-2.9280e-03,0.00665425
-2.9248e-03,0.00620812
-2.9216e-03,0.00693375
-2.9184e-03,0.00596625
-2.9152e-03,0.00708425
-2.9120e-03,0.00710575
-2.9088e-03,0.00698212
-2.9056e-03,0.00589637
-2.9024e-03,0.007009
-2.8992e-03,0.00522987
-2.8960e-03,0.00645537
-2.8928e-03,0.00571362
-2.8896e-03,0.0062565
-2.8864e-03,0.00550937
-2.8832e-03,0.00672412
-2.8800e-03,0.0059985
-2.8768e-03,0.00584262
-2.8736e-03,0.00648225
-2.8704e-03,0.0074605
-2.8672e-03,0.00673487
-2.8640e-03,0.00507937
-2.8608e-03,0.00660587
-2.8576e-03,0.0057405
-2.8544e-03,0.0060415
-2.8512e-03,0.0054395
-2.8480e-03,0.00622425
-2.8448e-03,0.00509012
-2.8416e-03,0.00596625
-2.8384e-03,0.00509012
-2.8352e-03,0.007267
-2.8320e-03,0.00576737
-2.8288e-03,0.0054825
-2.8256e-03,0.0059555
-2.8224e-03,0.0069875
-2.8192e-03,0.007224
-2.8160e-03,0.00650912
-2.8128e-03,0.006794
-2.8096e-03,0.00688537
-2.8064e-03,0.00738525
-2.8032e-03,0.00577812
-2.8000e-03,0.00719175
-2.7968e-03,0.00529975
-2.7936e-03,0.00535887
-2.7904e-03,0.0050525
-2.7872e-03,0.00603612
-2.7840e-03,0.00703587
-2.7808e-03,0.00575662
-2.7776e-03,0.006407
-2.7744e-03,0.00620275
-2.7712e-03,0.00634787
-2.7680e-03,0.00550937
-2.7648e-03,0.00576737
-2.7616e-03,0.00506325
-2.7584e-03,0.0054395
-2.7552e-03,0.00612212
-2.7520e-03,0.00495575
-2.7488e-03,0.00514387
-2.7456e-03,0.00497725
-2.7424e-03,0.00661662
-2.7392e-03,0.00554162
-2.7360e-03,0.00592325
-2.7328e-03,0.00435375
-2.7296e-03,0.00629412
-2.7264e-03,0.0057835
-2.7232e-03,0.00608987
-2.7200e-03,0.00510087
-2.7168e-03,0.0065575
-2.7136e-03,0.00585337
-2.7104e-03,0.00484825
-2.7072e-03,0.00564375
-2.7040e-03,0.00562762
-2.7008e-03,0.0053535
-2.6976e-03,0.00622425
-2.6944e-03,0.00648225
-2.6912e-03,0.00476762
-2.6880e-03,0.00571362
-2.6848e-03,0.00618125
-2.6816e-03,0.0068155
-2.6784e-03,0.00563837
-2.6752e-03,0.006751
-2.6720e-03,0.00552012
-2.6688e-03,0.00631025
-2.6656e-03,0.0053535
-2.6624e-03,0.00512775
-2.6592e-03,0.0052245
-2.6560e-03,0.00687462
-2.6528e-03,0.00641237
-2.6496e-03,0.00574587
-2.6464e-03,0.00573512
-2.6432e-03,0.005547
-2.6400e-03,0.00592862
-2.6368e-03,0.00495037
-2.6336e-03,0.00596087
-2.6304e-03,0.00430537
-2.6272e-03,0.00560612
-2.6240e-03,0.00534275
-2.6208e-03,0.00651987
-2.6176e-03,0.00534812
-2.6144e-03,0.0062135
-2.6112e-03,0.00634787
-2.6080e-03,0.00557387
-2.6048e-03,0.00663812
-2.6016e-03,0.006751
-2.5984e-03,0.00717025
-2.5952e-03,0.00546637
-2.5920e-03,0.00648762
-2.5888e-03,0.00640162
-2.5856e-03,0.00701437
-2.5824e-03,0.00572437
-2.5792e-03,0.00577812
-2.5760e-03,0.00684775
-2.5728e-03,0.0056545
-2.5696e-03,0.0060415
-2.5664e-03,0.00573512
-2.5632e-03,0.006149
-2.5600e-03,0.005203
-2.5568e-03,0.00639625
-2.5536e-03,0.004945
-2.5504e-03,0.0059125
-2.5472e-03,0.0047515
-2.5440e-03,0.00552012
-2.5408e-03,0.0052675
-2.5376e-03,0.00655212
-2.5344e-03,0.0050525
-2.5312e-03,0.00627262
-2.5280e-03,0.00588025
-2.5248e-03,0.00569212
-2.5216e-03,0.005891
-2.5184e-03,0.00648225
-2.5152e-03,0.00469775
-2.5120e-03,0.005891
-2.5088e-03,0.00564375
-2.5056e-03,0.005762
-2.5024e-03,0.005805
-2.4992e-03,0.0059555
-2.4960e-03,0.00662737
-2.4928e-03,0.00552012
-2.4896e-03,0.00598775
-2.4864e-03,0.00600925
-2.4832e-03,0.00547712
-2.4800e-03,0.00704662
-2.4768e-03,0.00710575
-2.4736e-03,0.00533737
-2.4704e-03,0.00624575
-2.4672e-03,0.005375
-2.4640e-03,0.0063425
-2.4608e-03,0.00529437
-2.4576e-03,0.006235
-2.4544e-03,0.00685312
-2.4512e-03,0.00491812
-2.4480e-03,0.00675637
-2.4448e-03,0.0056545
-2.4416e-03,0.006837
-2.4384e-03,0.00542337
-2.4352e-03,0.00619737
-2.4320e-03,0.00634787
-2.4288e-03,0.00511162
-2.4256e-03,0.006407
-2.4224e-03,0.00582112
-2.4192e-03,0.00624575
-2.4160e-03,0.00617587
-2.4128e-03,0.00689612
-2.4096e-03,0.00613287
-2.4064e-03,0.00651987
-2.4032e-03,0.00541262
-2.4000e-03,0.00548787
-2.3968e-03,0.00500412
-2.3936e-03,0.006407
-2.3904e-03,0.00575662
-2.3872e-03,0.007267
-2.3840e-03,0.00596087
-2.3808e-03,0.00721862
-2.3776e-03,0.00660587
-2.3744e-03,0.00634787
-2.3712e-03,0.00561687
-2.3680e-03,0.0062565
