5-18-23_Exp1/TEK00012.CSV

Model,TBS1052C
Firmware Version,v2015-08-04-prequal4ch70_v1.3

Point Format,Y
Horizontal Units,S
Horizontal Scale,0.004
Sample Interval,3.2e-06
Filter Frequency,2e+08
Record Length,20000
Gating,0.0% to 100.0%
Probe Attenuation,10
Vertical Units,V
Vertical Offset,0
Vertical Scale,0.05
Label,
TIME,CH2
-7.1424e-03,0.00579687
-7.1392e-03,0.00609375
-7.1360e-03,0.006
-7.1328e-03,0.00608593
-7.1296e-03,0.00513281
-7.1264e-03,0.00628125
-7.1232e-03,0.00496875
-7.1200e-03,0.00722656
-7.1168e-03,0.006625
-7.1136e-03,0.00586718
-7.1104e-03,0.00460156
-7.1072e-03,0.00601562
-7.1040e-03,0.00557812
-7.1008e-03,0.00482031
-7.0976e-03,0.00520312
-7.0944e-03,0.00477343
-7.0912e-03,0.00534375
-7.0880e-03,0.0056875
-7.0848e-03,0.00638281
-7.0816e-03,0.00520312
-7.0784e-03,0.00649218
-7.0752e-03,0.00552343
-7.0720e-03,0.006375
-7.0688e-03,0.00538281
-7.0656e-03,0.00686718
-7.0624e-03,0.006
-7.0592e-03,0.00597656
-7.0560e-03,0.00558593
-7.0528e-03,0.00639843
-7.0496e-03,0.00703125
-7.0464e-03,0.00585937
-7.0432e-03,0.00634375
-7.0400e-03,0.00547656
-7.0368e-03,0.00575781
-7.0336e-03,0.00508593
-7.0304e-03,0.00555468
-7.0272e-03,0.00460156
-7.0240e-03,0.00574218
-7.0208e-03,0.00475781
-7.0176e-03,0.00548437
-7.0144e-03,0.00495312
-7.0112e-03,0.00486718
-7.0080e-03,0.0048125
-7.0048e-03,0.00566406
-7.0016e-03,0.004875
-6.9984e-03,0.00661718
-6.9952e-03,0.00707812
-6.9920e-03,0.00557812
-6.9888e-03,0.00507031
-6.9856e-03,0.005875
-6.9824e-03,0.00614843
-6.9792e-03,0.00522656
-6.9760e-03,0.00680468
-6.9728e-03,0.00540625
-6.9696e-03,0.00603906
-6.9664e-03,0.0045625
-6.9632e-03,0.0060625
-6.9600e-03,0.00500781
-6.9568e-03,0.00576562
-6.9536e-03,0.00511718
-6.9504e-03,0.00600781
-6.9472e-03,0.00686718
-6.9440e-03,0.00577343
-6.9408e-03,0.00775781
-6.9376e-03,0.00566406
-6.9344e-03,0.006625
-6.9312e-03,0.00611718
-6.9280e-03,0.00564843
-6.9248e-03,0.00489843
-6.9216e-03,0.00585156
-6.9184e-03,0.00596093
-6.9152e-03,0.00566406
-6.9120e-03,0.00660156
-6.9088e-03,0.00583593
-6.9056e-03,0.00620312
-6.9024e-03,0.00435156
-6.8992e-03,0.00653125
-6.8960e-03,0.00611718
-6.8928e-03,0.00577343
-6.8896e-03,0.00534375
-6.8864e-03,0.00675781
-6.8832e-03,0.0065
-6.8800e-03,0.005125
-6.8768e-03,0.0060625
-6.8736e-03,0.00596093
-6.8704e-03,0.00616406
-6.8672e-03,0.00549218
-6.8640e-03,0.00585156
-6.8608e-03,0.0055625
-6.8576e-03,0.00703125
-6.8544e-03,0.00590625
-6.8512e-03,0.00642187
-6.8480e-03,0.00540625
-6.8448e-03,0.00592968
-6.8416e-03,0.00511718
-6.8384e-03,0.00575781
-6.8352e-03,0.00549218
-6.8320e-03,0.00645312
-6.8288e-03,0.00530468
-6.8256e-03,0.00557031
-6.8224e-03,0.00546093
-6.8192e-03,0.00646875
-6.8160e-03,0.00541406
-6.8128e-03,0.00565625
-6.8096e-03,0.00600781
-6.8064e-03,0.00520312
-6.8032e-03,0.00648437
-6.8000e-03,0.00610937
-6.7968e-03,0.00629687
-6.7936e-03,0.00500781
-6.7904e-03,0.00646875
-6.7872e-03,0.005125
-6.7840e-03,0.00676562
-6.7808e-03,0.00575781
-6.7776e-03,0.0056875
-6.7744e-03,0.0054375
-6.7712e-03,0.00646875
-6.7680e-03,0.00636718
-6.7648e-03,0.00577343
-6.7616e-03,0.00607812
-6.7584e-03,0.00602343
-6.7552e-03,0.00629687
-6.7520e-03,0.00513281
-6.7488e-03,0.00553125
-6.7456e-03,0.00517968
-6.7424e-03,0.00578125
-6.7392e-03,0.006
-6.7360e-03,0.00723437
-6.7328e-03,0.00702343
-6.7296e-03,0.00588281
-6.7264e-03,0.00692187
-6.7232e-03,0.00521875
-6.7200e-03,0.00646093
-6.7168e-03,0.00596875
-6.7136e-03,0.00639843
-6.7104e-03,0.0053125
-6.7072e-03,0.00607812
-6.7040e-03,0.00541406
-6.7008e-03,0.00665625
-6.6976e-03,0.00578125
-6.6944e-03,0.00649218
-6.6912e-03,0.00627343
-6.6880e-03,0.0064375
-6.6848e-03,0.00624218
-6.6816e-03,0.00628125
-6.6784e-03,0.00604687
-6.6752e-03,0.00425
-6.6720e-03,0.00585156
-6.6688e-03,0.00520312
-6.6656e-03,0.00557031
-6.6624e-03,0.00545312
-6.6592e-03,0.00646875
-6.6560e-03,0.00475781
-6.6528e-03,0.00578906
-6.6496e-03,0.00449218
-6.6464e-03,0.00584375
-6.6432e-03,0.00485156
-6.6400e-03,0.00529687
-6.6368e-03,0.00553125
-6.6336e-03,0.00509375
-6.6304e-03,0.00591406
-6.6272e-03,0.00566406
-6.6240e-03,0.0055625
-6.6208e-03,0.00596093
-6.6176e-03,0.00547656
-6.6144e-03,0.00541406
-6.6112e-03,0.00610156
-6.6080e-03,0.00578125
-6.6048e-03,0.00655468
-6.6016e-03,0.00564843
-6.5984e-03,0.00579687
-6.5952e-03,0.00446093
-6.5920e-03,0.00626562
-6.5888e-03,0.00583593
-6.5856e-03,0.00496093
-6.5824e-03,0.00498437
-6.5792e-03,0.00525
-6.5760e-03,0.005875
-6.5728e-03,0.00558593
-6.5696e-03,0.0061875
-6.5664e-03,0.00540625
-6.5632e-03,0.00557812
-6.5600e-03,0.00615625
-6.5568e-03,0.00614062
-6.5536e-03,0.00675781
-6.5504e-03,0.00547656
-6.5472e-03,0.00613281
-6.5440e-03,0.00479687
-6.5408e-03,0.00547656
-6.5376e-03,0.005625
-6.5344e-03,0.0060625
-6.5312e-03,0.00569531
-6.5280e-03,0.00560937
-6.5248e-03,0.00586718
-6.5216e-03,0.004875
-6.5184e-03,0.00610937
-6.5152e-03,0.00539843
-6.5120e-03,0.00611718
-6.5088e-03,0.00474218
-6.5056e-03,0.00677343
-6.5024e-03,0.00598437
-6.4992e-03,0.00585156
-6.4960e-03,0.00548437
-6.4928e-03,0.00663281
-6.4896e-03,0.00523437
-6.4864e-03,0.00578906
-6.4832e-03,0.00570312
-6.4800e-03,0.00689062
-6.4768e-03,0.00550781
-6.4736e-03,0.00645312
-6.4704e-03,0.00550781
-6.4672e-03,0.0054375
-6.4640e-03,0.00542187
-6.4608e-03,0.00577343
-6.4576e-03,0.00534375
-6.4544e-03,0.00485156
-6.4512e-03,0.00564843
-6.4480e-03,0.00654687
-6.4448e-03,0.00626562
-6.4416e-03,0.00547656
-6.4384e-03,0.00553906
-6.4352e-03,0.00495312
-6.4320e-03,0.00647656
-6.4288e-03,0.00540625
-6.4256e-03,0.00558593
-6.4224e-03,0.00477343
-6.4192e-03,0.00536718
-6.4160e-03,0.00519531
-6.4128e-03,0.0046875
-6.4096e-03,0.00550781
-6.4064e-03,0.00535156
-6.4032e-03,0.00651562
-6.4000e-03,0.00545312
-6.3968e-03,0.00617968
-6.3936e-03,0.00530468
-6.3904e-03,0.00661718
-6.3872e-03,0.00695312
-6.3840e-03,0.00677343
-6.3808e-03,0.00655468
-6.3776e-03,0.00665625
-6.3744e-03,0.00589843
-6.3712e-03,0.00646875
-6.3680e-03,0.00642187
-6.3648e-03,0.00513281
-6.3616e-03,0.00588281
-6.3584e-03,0.005375
-6.3552e-03,0.00622656
-6.3520e-03,0.00492968
-6.3488e-03,0.00632031
-6.3456e-03,0.00516406
-6.3424e-03,0.00678125
-6.3392e-03,0.00575781
-6.3360e-03,0.00588281
-6.3328e-03,0.00496875
-6.3296e-03,0.00564843
-6.3264e-03,0.00596875
-6.3232e-03,0.00525
-6.3200e-03,0.00534375
-6.3168e-03,0.00575
-6.3136e-03,0.006125
-6.3104e-03,0.00497656
-6.3072e-03,0.007
-6.3040e-03,0.00628125
-6.3008e-03,0.00709375
-6.2976e-03,0.00634375
-6.2944e-03,0.00721093
-6.2912e-03,0.00610156
-6.2880e-03,0.00741406
-6.2848e-03,0.00540625
-6.2816e-03,0.0071875
-6.2784e-03,0.00590625
-6.2752e-03,0.00510156
-6.2720e-03,0.00627343
-6.2688e-03,0.00446875
-6.2656e-03,0.00624218
-6.2624e-03,0.00563281
-6.2592e-03,0.00610937
-6.2560e-03,0.00534375
-6.2528e-03,0.00617187
-6.2496e-03,0.00488281
-6.2464e-03,0.00610156
-6.2432e-03,0.00564843
-6.2400e-03,0.00624218
-6.2368e-03,0.00594531
-6.2336e-03,0.00732812
-6.2304e-03,0.00740625
-6.2272e-03,0.00620312
-6.2240e-03,0.00690625
-6.2208e-03,0.00598437
-6.2176e-03,0.00603125
-6.2144e-03,0.00528906
-6.2112e-03,0.00647656
-6.2080e-03,0.00529687
-6.2048e-03,0.0063125
-6.2016e-03,0.00588281
-6.1984e-03,0.00621875
-6.1952e-03,0.00632031
-6.1920e-03,0.00610156
-6.1888e-03,0.00663281
-6.1856e-03,0.00525781
-6.1824e-03,0.00622656
-6.1792e-03,0.00542187
-6.1760e-03,0.00639843
-6.1728e-03,0.00536718
-6.1696e-03,0.00683593
-6.1664e-03,0.00522656
-6.1632e-03,0.00634375
-6.1600e-03,0.00515625
-6.1568e-03,0.00632812
-6.1536e-03,0.00514843
-6.1504e-03,0.00604687
-6.1472e-03,0.0054375
-6.1440e-03,0.00646875
-6.1408e-03,0.00703906
-6.1376e-03,0.00596093
-6.1344e-03,0.00725
-6.1312e-03,0.00599218
-6.1280e-03,0.00575781
-6.1248e-03,0.00480468
-6.1216e-03,0.00503906
-6.1184e-03,0.00489062
-6.1152e-03,0.00582812
-6.1120e-03,0.00599218
-6.1088e-03,0.00607812
-6.1056e-03,0.00565625
-6.1024e-03,0.00611718
-6.0992e-03,0.00569531
-6.0960e-03,0.00557812
-6.0928e-03,0.00617968
-6.0896e-03,0.00524218
-6.0864e-03,0.00666406
-6.0832e-03,0.00550781
-6.0800e-03,0.00682812
-6.0768e-03,0.00567187
-6.0736e-03,0.00607812
-6.0704e-03,0.00452343
-6.0672e-03,0.00597656
-6.0640e-03,0.00610156
-6.0608e-03,0.00528125
-6.0576e-03,0.00634375
-6.0544e-03,0.00636718
-6.0512e-03,0.00653125
-6.0480e-03,0.00616406
-6.0448e-03,0.00628125
-6.0416e-03,0.00488281
-6.0384e-03,0.00590625
-6.0352e-03,0.00578125
-6.0320e-03,0.00686718
-6.0288e-03,0.00683593
-6.0256e-03,0.00586718
-6.0224e-03,0.00671093
-6.0192e-03,0.00747656
-6.0160e-03,0.00807812
-6.0128e-03,0.00700781
-6.0096e-03,0.0074375
-6.0064e-03,0.00594531
-6.0032e-03,0.00540625
-6.0000e-03,0.00507812
-5.9968e-03,0.00655468
-5.9936e-03,0.00540625
-5.9904e-03,0.00579687
-5.9872e-03,0.00577343
-5.9840e-03,0.00648437
-5.9808e-03,0.00567187
-5.9776e-03,0.00685937
-5.9744e-03,0.00575
-5.9712e-03,0.00521875
-5.9680e-03,0.00524218
-5.9648e-03,0.00570312
-5.9616e-03,0.00521875
-5.9584e-03,0.00660156
-5.9552e-03,0.00609375
-5.9520e-03,0.00677343
-5.9488e-03,0.00590625
-5.9456e-03,0.0058125
-5.9424e-03,0.00546093
-5.9392e-03,0.00590625
-5.9360e-03,0.00677343
-5.9328e-03,0.00601562
-5.9296e-03,0.00633593
-5.9264e-03,0.00589843
-5.9232e-03,0.00596875
-5.9200e-03,0.00511718
-5.9168e-03,0.00540625
-5.9136e-03,0.00485937
-5.9104e-03,0.00610156
-5.9072e-03,0.00552343
-5.9040e-03,0.00535156
-5.9008e-03,0.00564843
-5.8976e-03,0.00554687
-5.8944e-03,0.0056875
-5.8912e-03,0.00483593
-5.8880e-03,0.0063125
-5.8848e-03,0.00559375
-5.8816e-03,0.005875
-5.8784e-03,0.0054375
-5.8752e-03,0.00619531
-5.8720e-03,0.00558593
-5.8688e-03,0.00657812
-5.8656e-03,0.00725
-5.8624e-03,0.00577343
-5.8592e-03,0.00566406
-5.8560e-03,0.00564062
-5.8528e-03,0.00683593
-5.8496e-03,0.00552343
-5.8464e-03,0.00603125
-5.8432e-03,0.00442187
-5.8400e-03,0.00551562
-5.8368e-03,0.00457031
-5.8336e-03,0.00605468
-5.8304e-03,0.0055625
-5.8272e-03,0.0066875
-5.8240e-03,0.00625
-5.8208e-03,0.00627343
-5.8176e-03,0.00589843
-5.8144e-03,0.00569531
-5.8112e-03,0.00567968
-5.8080e-03,0.00645312
-5.8048e-03,0.00617187
-5.8016e-03,0.00590625
-5.7984e-03,0.00567968
-5.7952e-03,0.00528125
-5.7920e-03,0.006
-5.7888e-03,0.00510156
-5.7856e-03,0.00653125
-5.7824e-03,0.00540625
-5.7792e-03,0.00717187
-5.7760e-03,0.00735937
-5.7728e-03,0.00757812
-5.7696e-03,0.00705468
-5.7664e-03,0.00659375
-5.7632e-03,0.00559375
-5.7600e-03,0.00485937
-5.7568e-03,0.00639062
-5.7536e-03,0.00564843
-5.7504e-03,0.00561718
-5.7472e-03,0.0049375
-5.7440e-03,0.0056875
-5.7408e-03,0.00577343
-5.7376e-03,0.00535156
-5.7344e-03,0.00597656
-5.7312e-03,0.00525
-5.7280e-03,0.006375
-5.7248e-03,0.00474218
-5.7216e-03,0.00578906
-5.7184e-03,0.00590625
-5.7152e-03,0.00649218
-5.7120e-03,0.00574218
-5.7088e-03,0.00670312
-5.7056e-03,0.00638281
-5.7024e-03,0.00585156
-5.6992e-03,0.00589843
-5.6960e-03,0.00671093
-5.6928e-03,0.0065625
-5.6896e-03,0.00504687
-5.6864e-03,0.00549218
-5.6832e-03,0.00478906
-5.6800e-03,0.00475
-5.6768e-03,0.00486718
-5.6736e-03,0.006
-5.6704e-03,0.00470312
-5.6672e-03,0.00584375
-5.6640e-03,0.00555468
-5.6608e-03,0.0060625
-5.6576e-03,0.00523437
-5.6544e-03,0.00613281
-5.6512e-03,0.00436718
-5.6480e-03,0.00561718
-5.6448e-03,0.00410156
-5.6416e-03,0.00592187
-5.6384e-03,0.00473437
-5.6352e-03,0.0039375
-5.6320e-03,0.00410937
-5.6288e-03,0.004625
-5.6256e-03,0.00590625
-5.6224e-03,0.00499218
-5.6192e-03,0.0059375
-5.6160e-03,0.00486718
-5.6128e-03,0.00575781
-5.6096e-03,0.00615625
-5.6064e-03,0.00560937
-5.6032e-03,0.00621093
-5.6000e-03,0.00526562
-5.5968e-03,0.00578125
-5.5936e-03,0.00505468
-5.5904e-03,0.00575781
-5.5872e-03,0.0050625
-5.5840e-03,0.00678125
-5.5808e-03,0.00578125
-5.5776e-03,0.00546875
-5.5744e-03,0.0058125
-5.5712e-03,0.00511718
-5.5680e-03,0.00677343
-5.5648e-03,0.00575781
-5.5616e-03,0.0058125
-5.5584e-03,0.00554687
-5.5552e-03,0.00675
-5.5520e-03,0.00653125
-5.5488e-03,0.00704687
-5.5456e-03,0.00619531
-5.5424e-03,0.00761718
-5.5392e-03,0.00570312
-5.5360e-03,0.006125
-5.5328e-03,0.0050625
-5.5296e-03,0.006
-5.5264e-03,0.00565625
-5.5232e-03,0.00638281
-5.5200e-03,0.00542187
-5.5168e-03,0.00642968
-5.5136e-03,0.00550781
-5.5104e-03,0.00646875
-5.5072e-03,0.00507031
-5.5040e-03,0.00617968
-5.5008e-03,0.00520312
-5.4976e-03,0.00564843
-5.4944e-03,0.00585156
-5.4912e-03,0.00652343
-5.4880e-03,0.00671875
-5.4848e-03,0.00515625
-5.4816e-03,0.00599218
-5.4784e-03,0.00525781
-5.4752e-03,0.00651562
-5.4720e-03,0.0054375
-5.4688e-03,0.00579687
-5.4656e-03,0.00666406
-5.4624e-03,0.00634375
-5.4592e-03,0.00614843
-5.4560e-03,0.00664843
-5.4528e-03,0.00689062
-5.4496e-03,0.00517187
-5.4464e-03,0.00745312
-5.4432e-03,0.00648437
-5.4400e-03,0.0075625
-5.4368e-03,0.00632812
-5.4336e-03,0.00597656
-5.4304e-03,0.00625781
-5.4272e-03,0.00579687
-5.4240e-03,0.00560156
-5.4208e-03,0.00634375
-5.4176e-03,0.00692187
-5.4144e-03,0.00516406
-5.4112e-03,0.00630468
-5.4080e-03,0.00632812
-5.4048e-03,0.00673437
-5.4016e-03,0.0055625
-5.3984e-03,0.00664843
-5.3952e-03,0.00515625
-5.3920e-03,0.00609375
-5.3888e-03,0.00507812
-5.3856e-03,0.00660156
-5.3824e-03,0.00667187
-5.3792e-03,0.00633593
-5.3760e-03,0.00590625
-5.3728e-03,0.00517968
-5.3696e-03,0.00632812
-5.3664e-03,0.00569531
-5.3632e-03,0.00644531
-5.3600e-03,0.00517187
-5.3568e-03,0.00599218
-5.3536e-03,0.00501562
-5.3504e-03,0.00602343
-5.3472e-03,0.00450781
-5.3440e-03,0.00485156
-5.3408e-03,0.00459375
-5.3376e-03,0.00513281
-5.3344e-03,0.00492187
-5.3312e-03,0.00453125
-5.3280e-03,0.00549218
-5.3248e-03,0.00574218
-5.3216e-03,0.00577343
-5.3184e-03,0.00492187
-5.3152e-03,0.00591406
-5.3120e-03,0.00564843
-5.3088e-03,0.00613281
-5.3056e-03,0.00536718
-5.3024e-03,0.00666406
-5.2992e-03,0.00554687
-5.2960e-03,0.00707031
-5.2928e-03,0.00661718
-5.2896e-03,0.00778906
-5.2864e-03,0.006875
-5.2832e-03,0.00684375
-5.2800e-03,0.00639062
-5.2768e-03,0.00514843
-5.2736e-03,0.00619531
-5.2704e-03,0.00574218
-5.2672e-03,0.00740625
-5.2640e-03,0.00603125
-5.2608e-03,0.00657031
-5.2576e-03,0.00439062
-5.2544e-03,0.00589062
-5.2512e-03,0.00547656
-5.2480e-03,0.00764843
-5.2448e-03,0.00707031
-5.2416e-03,0.00661718
-5.2384e-03,0.00592968
-5.2352e-03,0.00752343
-5.2320e-03,0.00628125
-5.2288e-03,0.00721875
-5.2256e-03,0.00557812
-5.2224e-03,0.00684375
-5.2192e-03,0.00569531
-5.2160e-03,0.0056875
-5.2128e-03,0.00528906
-5.2096e-03,0.00645312
-5.2064e-03,0.00596875
-5.2032e-03,0.00495312
-5.2000e-03,0.0049375
-5.1968e-03,0.00546875
-5.1936e-03,0.005875
-5.1904e-03,0.00511718
-5.1872e-03,0.00588281
-5.1840e-03,0.00428125
-5.1808e-03,0.006625
-5.1776e-03,0.00585156
-5.1744e-03,0.00638281
-5.1712e-03,0.00592968
-5.1680e-03,0.00553125
-5.1648e-03,0.00689062
-5.1616e-03,0.00513281
-5.1584e-03,0.00600781
-5.1552e-03,0.00507031
-5.1520e-03,0.00633593
-5.1488e-03,0.00536718
-5.1456e-03,0.00678125
-5.1424e-03,0.00709375
-5.1392e-03,0.0053125
-5.1360e-03,0.00550781
-5.1328e-03,0.00502343
-5.1296e-03,0.00594531
-5.1264e-03,0.0056875
-5.1232e-03,0.00636718
-5.1200e-03,0.00527343
-5.1168e-03,0.00564843
-5.1136e-03,0.00499218
-5.1104e-03,0.00639843
-5.1072e-03,0.00536718
-5.1040e-03,0.00613281
-5.1008e-03,0.00511718
-5.0976e-03,0.00586718
-5.0944e-03,0.00559375
-5.0912e-03,0.00685156
-5.0880e-03,0.0066875
-5.0848e-03,0.00640625
-5.0816e-03,0.00574218
-5.0784e-03,0.00603125
-5.0752e-03,0.00596875
-5.0720e-03,0.00447656
-5.0688e-03,0.00645312
-5.0656e-03,0.005875
-5.0624e-03,0.00642187
-5.0592e-03,0.0053125
-5.0560e-03,0.00604687
-5.0528e-03,0.00542187
-5.0496e-03,0.00639062
-5.0464e-03,0.0063125
-5.0432e-03,0.00509375
-5.0400e-03,0.00601562
-5.0368e-03,0.00565625
-5.0336e-03,0.00699218
-5.0304e-03,0.00532812
-5.0272e-03,0.00622656
-5.0240e-03,0.00475781
-5.0208e-03,0.00590625
-5.0176e-03,0.004625
-5.0144e-03,0.00575781
-5.0112e-03,0.00508593
-5.0080e-03,0.00677343
-5.0048e-03,0.0055
-5.0016e-03,0.00636718
-4.9984e-03,0.00592187
-4.9952e-03,0.00625781
-4.9920e-03,0.00553906
-4.9888e-03,0.00589843
-4.9856e-03,0.0060625
-4.9824e-03,0.00449218
-4.9792e-03,0.00567968
-4.9760e-03,0.00496093
-4.9728e-03,0.00500781
-4.9696e-03,0.00607812
-4.9664e-03,0.00713281
-4.9632e-03,0.0055625
-4.9600e-03,0.00657812
-4.9568e-03,0.0056875
-4.9536e-03,0.00591406
-4.9504e-03,0.00589843
-4.9472e-03,0.005625
-4.9440e-03,0.00575781
-4.9408e-03,0.00533593
-4.9376e-03,0.00599218
-4.9344e-03,0.00528125
-4.9312e-03,0.00565625
-4.9280e-03,0.0056875
-4.9248e-03,0.00639843
-4.9216e-03,0.00575781
-4.9184e-03,0.00502343
-4.9152e-03,0.00621875
-4.9120e-03,0.00553125
-4.9088e-03,0.00569531
-4.9056e-03,0.00655468
-4.9024e-03,0.00702343
-4.8992e-03,0.00632812
-4.8960e-03,0.00664843
-4.8928e-03,0.00550781
-4.8896e-03,0.00646875
-4.8864e-03,0.0056875
-4.8832e-03,0.00571875
-4.8800e-03,0.00575781
-4.8768e-03,0.00615625
-4.8736e-03,0.00547656
-4.8704e-03,0.005125
-4.8672e-03,0.005625
-4.8640e-03,0.00549218
-4.8608e-03,0.00514843
-4.8576e-03,0.0050625
-4.8544e-03,0.00521875
-4.8512e-03,0.0055
-4.8480e-03,0.00641406
-4.8448e-03,0.00578906
-4.8416e-03,0.00635156
-4.8384e-03,0.00474218
-4.8352e-03,0.00515625
-4.8320e-03,0.00553906
-4.8288e-03,0.00670312
-4.8256e-03,0.00570312
-4.8224e-03,0.0074375
-4.8192e-03,0.00603906
-4.8160e-03,0.00613281
-4.8128e-03,0.00578906
-4.8096e-03,0.005625
-4.8064e-03,0.00580468
-4.8032e-03,0.00599218
-4.8000e-03,0.00685156
-4.7968e-03,0.00586718
-4.7936e-03,0.00648437
-4.7904e-03,0.00485937
-4.7872e-03,0.00617187
-4.7840e-03,0.00588281
-4.7808e-03,0.00673437
-4.7776e-03,0.00717187
-4.7744e-03,0.00573437
-4.7712e-03,0.00610937
-4.7680e-03,0.00575
-4.7648e-03,0.00647656
-4.7616e-03,0.00510937
-4.7584e-03,0.00582812
-4.7552e-03,0.00595312
-4.7520e-03,0.00692968
-4.7488e-03,0.00684375
-4.7456e-03,0.00653906
-4.7424e-03,0.00709375
-4.7392e-03,0.0063125
-4.7360e-03,0.0056875
-4.7328e-03,0.00495312
-4.7296e-03,0.00557812
-4.7264e-03,0.00485156
-4.7232e-03,0.00697656
-4.7200e-03,0.005625
-4.7168e-03,0.00730468
-4.7136e-03,0.0061875
-4.7104e-03,0.0058125
-4.7072e-03,0.00498437
-4.7040e-03,0.00560156
-4.7008e-03,0.00524218
-4.6976e-03,0.00603125
-4.6944e-03,0.0055
-4.6912e-03,0.00692968
-4.6880e-03,0.00658593
-4.6848e-03,0.00628906
-4.6816e-03,0.00682812
-4.6784e-03,0.00609375
-4.6752e-03,0.00557031
-4.6720e-03,0.00682812
-4.6688e-03,0.00757031
-4.6656e-03,0.00605468
-4.6624e-03,0.00696093
-4.6592e-03,0.00590625
-4.6560e-03,0.00678125
-4.6528e-03,0.00607812
-4.6496e-03,0.00680468
-4.6464e-03,0.00511718
-4.6432e-03,0.00613281
-4.6400e-03,0.0060625
-4.6368e-03,0.00665625
-4.6336e-03,0.00649218
-4.6304e-03,0.00569531
-4.6272e-03,0.00667187
-4.6240e-03,0.00600781
-4.6208e-03,0.00692187
-4.6176e-03,0.00589843
-4.6144e-03,0.00634375
-4.6112e-03,0.00692968
-4.6080e-03,0.00725781
-4.6048e-03,0.00590625
-4.6016e-03,0.00538281
-4.5984e-03,0.00603906
-4.5952e-03,0.00567187
-4.5920e-03,0.00725
-4.5888e-03,0.00629687
-4.5856e-03,0.00648437
-4.5824e-03,0.00567187
-4.5792e-03,0.00595312
-4.5760e-03,0.00520312
-4.5728e-03,0.00526562
-4.5696e-03,0.00579687
-4.5664e-03,0.00564062
-4.5632e-03,0.00620312
-4.5600e-03,0.00569531
-4.5568e-03,0.00521875
-4.5536e-03,0.00553125
-4.5504e-03,0.00605468
-4.5472e-03,0.00517968
-4.5440e-03,0.00665625
-4.5408e-03,0.00549218
-4.5376e-03,0.00596875
-4.5344e-03,0.00514062
-4.5312e-03,0.00607812
-4.5280e-03,0.00529687
-4.5248e-03,0.00678125
-4.5216e-03,0.00610156
-4.5184e-03,0.00589843
-4.5152e-03,0.0051875
-4.5120e-03,0.0055
-4.5088e-03,0.00522656
-4.5056e-03,0.00596875
-4.5024e-03,0.00586718
-4.4992e-03,0.00642187
-4.4960e-03,0.00640625
-4.4928e-03,0.00550781
-4.4896e-03,0.00622656
-4.4864e-03,0.00485937
-4.4832e-03,0.0063125
-4.4800e-03,0.00548437
-4.4768e-03,0.00620312
-4.4736e-03,0.00547656
-4.4704e-03,0.00575781
-4.4672e-03,0.00552343
-4.4640e-03,0.00628906
-4.4608e-03,0.006
-4.4576e-03,0.00674218
-4.4544e-03,0.00689062
-4.4512e-03,0.00652343
-4.4480e-03,0.00589062
-4.4448e-03,0.00601562
-4.4416e-03,0.00678125
-4.4384e-03,0.00517968
-4.4352e-03,0.00696093
-4.4320e-03,0.00632031
-4.4288e-03,0.00592968
-4.4256e-03,0.00588281
-4.4224e-03,0.00735156
-4.4192e-03,0.00592968
-4.4160e-03,0.00779687
-4.4128e-03,0.00672656
-4.4096e-03,0.00677343
-4.4064e-03,0.00546875
-4.4032e-03,0.00564062
-4.4000e-03,0.00525
-4.3968e-03,0.00695312
-4.3936e-03,0.00657812
-4.3904e-03,0.00560937
-4.3872e-03,0.005625
-4.3840e-03,0.00589843
-4.3808e-03,0.00602343
-4.3776e-03,0.00608593
