5-18-23_Exp1/TEK00002.CSV

Model,TBS1052C
Firmware Version,v2015-08-04-prequal4ch70_v1.3

Point Format,Y
Horizontal Units,S
Horizontal Scale,0.01
Sample Interval,8e-06
Filter Frequency,2e+08
Record Length,20000
Gating,0.0% to 100.0%
Probe Attenuation,10
Vertical Units,V
Vertical Offset,0
Vertical Scale,0.05
Label,
TIME,CH2
-6.5024e-02,0.00403125
-6.5016e-02,0.00494531
-6.5008e-02,0.0046875
-6.5000e-02,0.00424219
-6.4992e-02,0.00436719
-6.4984e-02,0.00497656
-6.4976e-02,0.00498437
-6.4968e-02,0.0048125
-6.4960e-02,0.0049375
-6.4952e-02,0.00455469
-6.4944e-02,0.0049375
-6.4936e-02,0.00567187
-6.4928e-02,0.00557031
-6.4920e-02,0.00461719
-6.4912e-02,0.0048125
-6.4904e-02,0.00439062
-6.4896e-02,0.00390625
-6.4888e-02,0.00470312
-6.4880e-02,0.00513281
-6.4872e-02,0.00475
-6.4864e-02,0.00451562
-6.4856e-02,0.00511719
-6.4848e-02,0.00485156
-6.4840e-02,0.00509375
-6.4832e-02,0.00427344
-6.4824e-02,0.0040625
-6.4816e-02,0.0033125
-6.4808e-02,0.0038125
-6.4800e-02,0.00477344
-6.4792e-02,0.00453125
-6.4784e-02,0.00410937
-6.4776e-02,0.00428906
-6.4768e-02,0.00529687
-6.4760e-02,0.0048125
-6.4752e-02,0.0046875
-6.4744e-02,0.00510937
-6.4736e-02,0.00428125
-6.4728e-02,0.003625
-6.4720e-02,0.00376562
-6.4712e-02,0.00409375
-6.4704e-02,0.0041875
-6.4696e-02,0.00500781
-6.4688e-02,0.00438281
-6.4680e-02,0.00411719
-6.4672e-02,0.00389844
-6.4664e-02,0.00477344
-6.4656e-02,0.00538281
-6.4648e-02,0.00501562
-6.4640e-02,0.00423437
-6.4632e-02,0.00503125
-6.4624e-02,0.00414062
-6.4616e-02,0.00505469
-6.4608e-02,0.00435937
-6.4600e-02,0.00485937
-6.4592e-02,0.00396094
-6.4584e-02,0.00402344
-6.4576e-02,0.00480469
-6.4568e-02,0.0044375
-6.4560e-02,0.00511719
-6.4552e-02,0.00508594
-6.4544e-02,0.00486719
-6.4536e-02,0.00584375
-6.4528e-02,0.00526562
-6.4520e-02,0.00485156
-6.4512e-02,0.00453125
-6.4504e-02,0.00505469
-6.4496e-02,0.0055625
-6.4488e-02,0.00451562
-6.4480e-02,0.00471875
-6.4472e-02,0.00549219
-6.4464e-02,0.00514844
-6.4456e-02,0.00499219
-6.4448e-02,0.00551562
-6.4440e-02,0.00489844
-6.4432e-02,0.00473437
-6.4424e-02,0.00405469
-6.4416e-02,0.00422656
-6.4408e-02,0.00445312
-6.4400e-02,0.00457031
-6.4392e-02,0.00529687
-6.4384e-02,0.00519531
-6.4376e-02,0.00523437
-6.4368e-02,0.00508594
-6.4360e-02,0.00579687
-6.4352e-02,0.00463281
-6.4344e-02,0.00492969
-6.4336e-02,0.00464844
-6.4328e-02,0.00420312
-6.4320e-02,0.00530469
-6.4312e-02,0.00478125
-6.4304e-02,0.00442969
-6.4296e-02,0.00447656
-6.4288e-02,0.00449219
-6.4280e-02,0.00525781
-6.4272e-02,0.00421094
-6.4264e-02,0.00439844
-6.4256e-02,0.00465625
-6.4248e-02,0.005125
-6.4240e-02,0.00422656
-6.4232e-02,0.00371094
-6.4224e-02,0.00536719
-6.4216e-02,0.00529687
-6.4208e-02,0.00514844
-6.4200e-02,0.00552344
-6.4192e-02,0.00542187
-6.4184e-02,0.00573437
-6.4176e-02,0.00541406
-6.4168e-02,0.00482812
-6.4160e-02,0.00478125
-6.4152e-02,0.00499219
-6.4144e-02,0.00472656
-6.4136e-02,0.00510156
-6.4128e-02,0.00561719
-6.4120e-02,0.00471094
-6.4112e-02,0.00525
-6.4104e-02,0.00424219
-6.4096e-02,0.00496094
-6.4088e-02,0.00442969
-6.4080e-02,0.00378906
-6.4072e-02,0.00470312
-6.4064e-02,0.00428125
-6.4056e-02,0.00559375
-6.4048e-02,0.00380469
-6.4040e-02,0.00428125
-6.4032e-02,0.00414844
-6.4024e-02,0.00489844
-6.4016e-02,0.00510156
-6.4008e-02,0.00434375
-6.4000e-02,0.00471094
-6.3992e-02,0.00449219
-6.3984e-02,0.00340625
-6.3976e-02,0.00399219
-6.3968e-02,0.00411719
-6.3960e-02,0.00498437
-6.3952e-02,0.00436719
-6.3944e-02,0.00459375
-6.3936e-02,0.00467187
-6.3928e-02,0.00408594
-6.3920e-02,0.00423437
-6.3912e-02,0.0046875
-6.3904e-02,0.004875
-6.3896e-02,0.00435156
-6.3888e-02,0.00429687
-6.3880e-02,0.00446875
-6.3872e-02,0.00464062
-6.3864e-02,0.00535156
-6.3856e-02,0.00457031
-6.3848e-02,0.00410156
-6.3840e-02,0.00475781
-6.3832e-02,0.00521875
-6.3824e-02,0.00428906
-6.3816e-02,0.00448437
-6.3808e-02,0.00485156
-6.3800e-02,0.00432812
-6.3792e-02,0.00509375
-6.3784e-02,0.00550781
-6.3776e-02,0.00523437
-6.3768e-02,0.00538281
-6.3760e-02,0.00485156
-6.3752e-02,0.00521094
-6.3744e-02,0.00486719
-6.3736e-02,0.00435937
-6.3728e-02,0.00442187
-6.3720e-02,0.00440625
-6.3712e-02,0.00448437
-6.3704e-02,0.00569531
-6.3696e-02,0.00604687
-6.3688e-02,0.00542969
-6.3680e-02,0.00463281
-6.3672e-02,0.00419531
-6.3664e-02,0.00454687
-6.3656e-02,0.00435156
-6.3648e-02,0.00521875
-6.3640e-02,0.00433594
-6.3632e-02,0.00472656
-6.3624e-02,0.00376562
-6.3616e-02,0.00432031
-6.3608e-02,0.00448437
-6.3600e-02,0.00484375
-6.3592e-02,0.00435937
-6.3584e-02,0.00386719
-6.3576e-02,0.00539062
-6.3568e-02,0.004375
-6.3560e-02,0.00445312
-6.3552e-02,0.00503125
-6.3544e-02,0.00446094
-6.3536e-02,0.00460937
-6.3528e-02,0.00392969
-6.3520e-02,0.00420312
-6.3512e-02,0.00528906
-6.3504e-02,0.00476562
-6.3496e-02,0.00434375
-6.3488e-02,0.00513281
-6.3480e-02,0.004875
-6.3472e-02,0.00409375
-6.3464e-02,0.00538281
-6.3456e-02,0.005375
-6.3448e-02,0.00498437
-6.3440e-02,0.00434375
-6.3432e-02,0.00466406
-6.3424e-02,0.00560937
-6.3416e-02,0.0046875
-6.3408e-02,0.005375
-6.3400e-02,0.00464062
-6.3392e-02,0.00430469
-6.3384e-02,0.00373437
-6.3376e-02,0.00482031
-6.3368e-02,0.00469531
-6.3360e-02,0.00473437
-6.3352e-02,0.00489844
-6.3344e-02,0.00440625
-6.3336e-02,0.00455469
-6.3328e-02,0.00542969
-6.3320e-02,0.00502344
-6.3312e-02,0.00517187
-6.3304e-02,0.00401562
-6.3296e-02,0.00501562
-6.3288e-02,0.0049375
-6.3280e-02,0.00485156
-6.3272e-02,0.00540625
-6.3264e-02,0.00467187
-6.3256e-02,0.00532031
-6.3248e-02,0.00517969
-6.3240e-02,0.005125
-6.3232e-02,0.00560937
-6.3224e-02,0.00546875
-6.3216e-02,0.00525
-6.3208e-02,0.0059375
-6.3200e-02,0.00421875
-6.3192e-02,0.00520312
-6.3184e-02,0.00498437
-6.3176e-02,0.00439062
-6.3168e-02,0.00473437
-6.3160e-02,0.00505469
-6.3152e-02,0.00475
-6.3144e-02,0.00442187
-6.3136e-02,0.00442187
-6.3128e-02,0.00450781
-6.3120e-02,0.00426562
-6.3112e-02,0.00409375
-6.3104e-02,0.004125
-6.3096e-02,0.00435937
-6.3088e-02,0.00492969
-6.3080e-02,0.00428906
-6.3072e-02,0.00421094
-6.3064e-02,0.00390625
-6.3056e-02,0.004125
-6.3048e-02,0.00449219
-6.3040e-02,0.00471875
-6.3032e-02,0.00489062
-6.3024e-02,0.00589062
-6.3016e-02,0.00525781
-6.3008e-02,0.00528906
-6.3000e-02,0.00442187
-6.2992e-02,0.00492187
-6.2984e-02,0.00557031
-6.2976e-02,0.00535156
-6.2968e-02,0.00438281
-6.2960e-02,0.00517187
-6.2952e-02,0.00460156
-6.2944e-02,0.00485937
-6.2936e-02,0.00452344
-6.2928e-02,0.0045625
-6.2920e-02,0.00482812
-6.2912e-02,0.00454687
-6.2904e-02,0.00421875
-6.2896e-02,0.0054375
-6.2888e-02,0.00525
-6.2880e-02,0.00498437
-6.2872e-02,0.00561719
-6.2864e-02,0.00507031
-6.2856e-02,0.00439844
-6.2848e-02,0.00451562
-6.2840e-02,0.00422656
-6.2832e-02,0.00459375
-6.2824e-02,0.00514844
-6.2816e-02,0.0050625
-6.2808e-02,0.00561719
-6.2800e-02,0.00582812
-6.2792e-02,0.00574219
-6.2784e-02,0.00591406
-6.2776e-02,0.00636719
-6.2768e-02,0.00563281
-6.2760e-02,0.00532031
-6.2752e-02,0.00492969
-6.2744e-02,0.00553125
-6.2736e-02,0.0054375
-6.2728e-02,0.00420312
-6.2720e-02,0.00438281
-6.2712e-02,0.00522656
-6.2704e-02,0.00442969
-6.2696e-02,0.00477344
-6.2688e-02,0.00458594
-6.2680e-02,0.00423437
-6.2672e-02,0.00424219
-6.2664e-02,0.00498437
-6.2656e-02,0.00482031
-6.2648e-02,0.00490625
-6.2640e-02,0.00490625
-6.2632e-02,0.00528906
-6.2624e-02,0.00435937
-6.2616e-02,0.00496094
-6.2608e-02,0.00459375
-6.2600e-02,0.0046875
-6.2592e-02,0.00478906
-6.2584e-02,0.00457031
-6.2576e-02,0.00539844
-6.2568e-02,0.00428125
-6.2560e-02,0.00484375
-6.2552e-02,0.00478125
-6.2544e-02,0.00464062
-6.2536e-02,0.00463281
-6.2528e-02,0.00405469
-6.2520e-02,0.00477344
-6.2512e-02,0.00424219
-6.2504e-02,0.00475781
-6.2496e-02,0.00525
-6.2488e-02,0.00595312
-6.2480e-02,0.00521094
-6.2472e-02,0.00444531
-6.2464e-02,0.00486719
-6.2456e-02,0.00453125
-6.2448e-02,0.00475
-6.2440e-02,0.00504687
-6.2432e-02,0.0053125
-6.2424e-02,0.00492187
-6.2416e-02,0.00502344
-6.2408e-02,0.00542969
-6.2400e-02,0.00539062
-6.2392e-02,0.0043125
-6.2384e-02,0.00400781
-6.2376e-02,0.00534375
-6.2368e-02,0.00457031
-6.2360e-02,0.00392969
-6.2352e-02,0.00507812
-6.2344e-02,0.005375
-6.2336e-02,0.00603125
-6.2328e-02,0.00557812
-6.2320e-02,0.00425781
-6.2312e-02,0.00476562
-6.2304e-02,0.00540625
-6.2296e-02,0.00428125
-6.2288e-02,0.00476562
-6.2280e-02,0.004875
-6.2272e-02,0.00460156
-6.2264e-02,0.00489062
-6.2256e-02,0.004375
-6.2248e-02,0.00447656
-6.2240e-02,0.00480469
-6.2232e-02,0.0048125
-6.2224e-02,0.00490625
-6.2216e-02,0.00457812
-6.2208e-02,0.00415625
-6.2200e-02,0.005
-6.2192e-02,0.00499219
-6.2184e-02,0.00449219
-6.2176e-02,0.00528125
-6.2168e-02,0.00410156
-6.2160e-02,0.00439062
-6.2152e-02,0.00453906
-6.2144e-02,0.00472656
-6.2136e-02,0.00478125
-6.2128e-02,0.00467187
-6.2120e-02,0.00395312
-6.2112e-02,0.00405469
-6.2104e-02,0.0045
-6.2096e-02,0.00540625
-6.2088e-02,0.00434375
-6.2080e-02,0.00473437
-6.2072e-02,0.0046875
-6.2064e-02,0.00492969
-6.2056e-02,0.005125
-6.2048e-02,0.00471094
-6.2040e-02,0.00421094
-6.2032e-02,0.00449219
-6.2024e-02,0.00446875
-6.2016e-02,0.00416406
-6.2008e-02,0.00450781
-6.2000e-02,0.00421875
-6.1992e-02,0.00542969
-6.1984e-02,0.00546094
-6.1976e-02,0.00483594
-6.1968e-02,0.00432812
-6.1960e-02,0.00573437
-6.1952e-02,0.00553906
-6.1944e-02,0.00574219
-6.1936e-02,0.00499219
-6.1928e-02,0.00460156
-6.1920e-02,0.00424219
-6.1912e-02,0.00454687
-6.1904e-02,0.00341406
-6.1896e-02,0.00407031
-6.1888e-02,0.00541406
-6.1880e-02,0.00496094
-6.1872e-02,0.00492969
-6.1864e-02,0.00485937
-6.1856e-02,0.00508594
-6.1848e-02,0.00570312
-6.1840e-02,0.00516406
-6.1832e-02,0.00382031
-6.1824e-02,0.00470312
-6.1816e-02,0.00370312
-6.1808e-02,0.00480469
-6.1800e-02,0.00517187
-6.1792e-02,0.00478125
-6.1784e-02,0.00478906
-6.1776e-02,0.00503125
-6.1768e-02,0.00471875
-6.1760e-02,0.00478906
-6.1752e-02,0.0053125
-6.1744e-02,0.00446094
-6.1736e-02,0.00535937
-6.1728e-02,0.00522656
-6.1720e-02,0.00499219
-6.1712e-02,0.00588281
-6.1704e-02,0.00570312
-6.1696e-02,0.00660156
-6.1688e-02,0.00446875
-6.1680e-02,0.00471094
-6.1672e-02,0.00515625
-6.1664e-02,0.00457031
-6.1656e-02,0.00498437
-6.1648e-02,0.00547656
-6.1640e-02,0.00525781
-6.1632e-02,0.00471094
-6.1624e-02,0.00582812
-6.1616e-02,0.00548437
-6.1608e-02,0.00475781
-6.1600e-02,0.00464062
-6.1592e-02,0.00457812
-6.1584e-02,0.00502344
-6.1576e-02,0.00525
-6.1568e-02,0.00516406
-6.1560e-02,0.00496875
-6.1552e-02,0.00461719
-6.1544e-02,0.004
-6.1536e-02,0.00445312
-6.1528e-02,0.00496094
-6.1520e-02,0.00454687
-6.1512e-02,0.004125
-6.1504e-02,0.00542187
-6.1496e-02,0.0053125
-6.1488e-02,0.00464844
-6.1480e-02,0.00408594
-6.1472e-02,0.00446875
-6.1464e-02,0.00496875
-6.1456e-02,0.00504687
-6.1448e-02,0.00444531
-6.1440e-02,0.00513281
-6.1432e-02,0.00510156
-6.1424e-02,0.0049375
-6.1416e-02,0.00482031
-6.1408e-02,0.00432812
-6.1400e-02,0.00403906
-6.1392e-02,0.00488281
-6.1384e-02,0.00486719
-6.1376e-02,0.00432031
-6.1368e-02,0.00522656
-6.1360e-02,0.005125
-6.1352e-02,0.00535156
-6.1344e-02,0.00588281
-6.1336e-02,0.00539062
-6.1328e-02,0.00457812
-6.1320e-02,0.00463281
-6.1312e-02,0.00548437
-6.1304e-02,0.00496875
-6.1296e-02,0.00571094
-6.1288e-02,0.0051875
-6.1280e-02,0.00465625
-6.1272e-02,0.00478906
-6.1264e-02,0.00513281
-6.1256e-02,0.00507812
-6.1248e-02,0.00409375
-6.1240e-02,0.00473437
-6.1232e-02,0.00488281
-6.1224e-02,0.00404687
-6.1216e-02,0.0039375
-6.1208e-02,0.00449219
-6.1200e-02,0.00419531
-6.1192e-02,0.00448437
-6.1184e-02,0.00582812
-6.1176e-02,0.00615625
-6.1168e-02,0.00535156
-6.1160e-02,0.00417187
-6.1152e-02,0.00508594
-6.1144e-02,0.005625
-6.1136e-02,0.00378906
-6.1128e-02,0.00475
-6.1120e-02,0.00477344
-6.1112e-02,0.00475
-6.1104e-02,0.00496094
-6.1096e-02,0.00458594
-6.1088e-02,0.00494531
-6.1080e-02,0.00532812
-6.1072e-02,0.00457031
-6.1064e-02,0.00478125
-6.1056e-02,0.00533594
-6.1048e-02,0.00533594
-6.1040e-02,0.00608594
-6.1032e-02,0.00603906
-6.1024e-02,0.00523437
-6.1016e-02,0.00613281
-6.1008e-02,0.00560156
-6.1000e-02,0.0053125
-6.0992e-02,0.00529687
-6.0984e-02,0.00446875
-6.0976e-02,0.00470312
-6.0968e-02,0.00514844
-6.0960e-02,0.00521875
-6.0952e-02,0.00566406
-6.0944e-02,0.00501562
-6.0936e-02,0.00514844
-6.0928e-02,0.00453125
-6.0920e-02,0.00522656
-6.0912e-02,0.0046875
-6.0904e-02,0.00453906
-6.0896e-02,0.00535156
-6.0888e-02,0.00407031
-6.0880e-02,0.00404687
-6.0872e-02,0.00453906
-6.0864e-02,0.00515625
-6.0856e-02,0.005125
-6.0848e-02,0.00501562
-6.0840e-02,0.00421094
-6.0832e-02,0.00361719
-6.0824e-02,0.00391406
-6.0816e-02,0.00458594
-6.0808e-02,0.0039375
-6.0800e-02,0.00428125
-6.0792e-02,0.00390625
-6.0784e-02,0.00382031
-6.0776e-02,0.0046875
-6.0768e-02,0.00447656
-6.0760e-02,0.00521094
-6.0752e-02,0.00442187
-6.0744e-02,0.00511719
-6.0736e-02,0.00494531
-6.0728e-02,0.00514062
-6.0720e-02,0.00471094
-6.0712e-02,0.005125
-6.0704e-02,0.00432812
-6.0696e-02,0.00489062
-6.0688e-02,0.00503906
-6.0680e-02,0.00513281
-6.0672e-02,0.004875
-6.0664e-02,0.0053125
-6.0656e-02,0.004875
-6.0648e-02,0.00498437
-6.0640e-02,0.00426562
-6.0632e-02,0.00469531
-6.0624e-02,0.00486719
-6.0616e-02,0.00502344
-6.0608e-02,0.00527344
-6.0600e-02,0.00480469
-6.0592e-02,0.0041875
-6.0584e-02,0.00475781
-6.0576e-02,0.00467969
-6.0568e-02,0.00520312
-6.0560e-02,0.00449219
-6.0552e-02,0.00527344
-6.0544e-02,0.00580469
-6.0536e-02,0.00528125
-6.0528e-02,0.00464062
-6.0520e-02,0.00405469
-6.0512e-02,0.00455469
-6.0504e-02,0.00539844
-6.0496e-02,0.00564062
-6.0488e-02,0.00564844
-6.0480e-02,0.00520312
-6.0472e-02,0.00560156
-6.0464e-02,0.00432031
-6.0456e-02,0.00549219
-6.0448e-02,0.00517969
-6.0440e-02,0.00492187
-6.0432e-02,0.00485937
-6.0424e-02,0.00523437
-6.0416e-02,0.00525
-6.0408e-02,0.00480469
-6.0400e-02,0.005125
-6.0392e-02,0.00533594
-6.0384e-02,0.00442187
-6.0376e-02,0.00505469
-6.0368e-02,0.00520312
-6.0360e-02,0.00475
-6.0352e-02,0.00396875
-6.0344e-02,0.00496094
-6.0336e-02,0.00438281
-6.0328e-02,0.0045625
-6.0320e-02,0.00478906
-6.0312e-02,0.00449219
-6.0304e-02,0.00486719
-6.0296e-02,0.00503906
-6.0288e-02,0.00450781
-6.0280e-02,0.00430469
-6.0272e-02,0.00421875
-6.0264e-02,0.00471875
-6.0256e-02,0.0045
-6.0248e-02,0.00502344
-6.0240e-02,0.00505469
-6.0232e-02,0.00532031
-6.0224e-02,0.00572656
-6.0216e-02,0.00548437
-6.0208e-02,0.00570312
-6.0200e-02,0.00532031
-6.0192e-02,0.00527344
-6.0184e-02,0.00524219
-6.0176e-02,0.00535156
-6.0168e-02,0.00524219
-6.0160e-02,0.00532812
-6.0152e-02,0.00497656
-6.0144e-02,0.00410937
-6.0136e-02,0.00473437
-6.0128e-02,0.00420312
-6.0120e-02,0.00421875
-6.0112e-02,0.00508594
-6.0104e-02,0.00404687
-6.0096e-02,0.00492969
-6.0088e-02,0.00460156
-6.0080e-02,0.00494531
-6.0072e-02,0.00523437
-6.0064e-02,0.00420312
-6.0056e-02,0.00489062
-6.0048e-02,0.00552344
-6.0040e-02,0.00560937
-6.0032e-02,0.00533594
-6.0024e-02,0.00553125
-6.0016e-02,0.00471094
-6.0008e-02,0.00424219
-6.0000e-02,0.00509375
-5.9992e-02,0.00494531
-5.9984e-02,0.00524219
-5.9976e-02,0.00488281
-5.9968e-02,0.00413281
-5.9960e-02,0.00458594
-5.9952e-02,0.00535937
-5.9944e-02,0.00434375
-5.9936e-02,0.00502344
-5.9928e-02,0.00475781
-5.9920e-02,0.00520312
-5.9912e-02,0.00499219
-5.9904e-02,0.00494531
-5.9896e-02,0.00476562
-5.9888e-02,0.00551562
-5.9880e-02,0.00495312
-5.9872e-02,0.00407812
-5.9864e-02,0.00403125
-5.9856e-02,0.00405469
-5.9848e-02,0.00476562
-5.9840e-02,0.00541406
-5.9832e-02,0.00475781
-5.9824e-02,0.00534375
-5.9816e-02,0.0055625
-5.9808e-02,0.00529687
-5.9800e-02,0.00407812
-5.9792e-02,0.00492969
-5.9784e-02,0.005375
-5.9776e-02,0.00433594
-5.9768e-02,0.00496875
-5.9760e-02,0.00471094
-5.9752e-02,0.00535156
-5.9744e-02,0.00492187
-5.9736e-02,0.00564062
-5.9728e-02,0.00604687
-5.9720e-02,0.00473437
-5.9712e-02,0.00544531
-5.9704e-02,0.005
-5.9696e-02,0.00517969
-5.9688e-02,0.00513281
-5.9680e-02,0.00522656
-5.9672e-02,0.00508594
-5.9664e-02,0.00482812
-5.9656e-02,0.00517187
-5.9648e-02,0.00538281
-5.9640e-02,0.00390625
-5.9632e-02,0.00429687
-5.9624e-02,0.00448437
-5.9616e-02,0.00397656
-5.9608e-02,0.0054375
-5.9600e-02,0.00482812
-5.9592e-02,0.00492969
-5.9584e-02,0.00559375
-5.9576e-02,0.00525
-5.9568e-02,0.00478906
-5.9560e-02,0.00605469
-5.9552e-02,0.0054375
-5.9544e-02,0.00510156
-5.9536e-02,0.00463281
-5.9528e-02,0.00558594
-5.9520e-02,0.00497656
-5.9512e-02,0.00475781
-5.9504e-02,0.00438281
-5.9496e-02,0.00422656
-5.9488e-02,0.00475781
-5.9480e-02,0.00479687
-5.9472e-02,0.00457812
-5.9464e-02,0.00489062
-5.9456e-02,0.00545312
-5.9448e-02,0.00567969
-5.9440e-02,0.00540625
-5.9432e-02,0.00464062
-5.9424e-02,0.0050625
-5.9416e-02,0.00508594
-5.9408e-02,0.00503125
-5.9400e-02,0.00448437
-5.9392e-02,0.00511719
-5.9384e-02,0.00548437
-5.9376e-02,0.00441406
-5.9368e-02,0.00459375
-5.9360e-02,0.00434375
-5.9352e-02,0.00419531
-5.9344e-02,0.00428906
-5.9336e-02,0.00528906
-5.9328e-02,0.00578906
-5.9320e-02,0.00546875
-5.9312e-02,0.00579687
-5.9304e-02,0.00560937
-5.9296e-02,0.00564062
-5.9288e-02,0.00547656
-5.9280e-02,0.00639062
-5.9272e-02,0.00592187
-5.9264e-02,0.00446875
-5.9256e-02,0.00496875
-5.9248e-02,0.00489062
-5.9240e-02,0.00514062
-5.9232e-02,0.00515625
-5.9224e-02,0.00494531
-5.9216e-02,0.00459375
-5.9208e-02,0.00453906
-5.9200e-02,0.00458594
-5.9192e-02,0.00478125
-5.9184e-02,0.00392187
-5.9176e-02,0.00425781
-5.9168e-02,0.00573437
-5.9160e-02,0.00538281
-5.9152e-02,0.00535937
-5.9144e-02,0.00530469
-5.9136e-02,0.00594531
-5.9128e-02,0.00561719
-5.9120e-02,0.00550781
-5.9112e-02,0.00548437
-5.9104e-02,0.00542187
-5.9096e-02,0.00475
-5.9088e-02,0.00495312
-5.9080e-02,0.004375
-5.9072e-02,0.00466406
-5.9064e-02,0.00382812
-5.9056e-02,0.00439844
-5.9048e-02,0.00422656
-5.9040e-02,0.00428906
-5.9032e-02,0.00465625
-5.9024e-02,0.00478125
-5.9016e-02,0.00480469
-5.9008e-02,0.00486719
-5.9000e-02,0.00577344
-5.8992e-02,0.00592187
-5.8984e-02,0.00489844
-5.8976e-02,0.00500781
-5.8968e-02,0.00517187
-5.8960e-02,0.00553906
-5.8952e-02,0.00584375
-5.8944e-02,0.00473437
-5.8936e-02,0.0048125
-5.8928e-02,0.00564062
-5.8920e-02,0.00557031
-5.8912e-02,0.00503125
-5.8904e-02,0.0053125
-5.8896e-02,0.00502344
-5.8888e-02,0.00583594
-5.8880e-02,0.00561719
-5.8872e-02,0.0058125
-5.8864e-02,0.00600781
-5.8856e-02,0.00529687
-5.8848e-02,0.00533594
-5.8840e-02,0.00551562
-5.8832e-02,0.00464062
-5.8824e-02,0.00501562
-5.8816e-02,0.0046875
-5.8808e-02,0.00501562
-5.8800e-02,0.00489062
-5.8792e-02,0.00529687
-5.8784e-02,0.005
-5.8776e-02,0.00561719
-5.8768e-02,0.00514062
-5.8760e-02,0.00453125
-5.8752e-02,0.00530469
-5.8744e-02,0.00608594
-5.8736e-02,0.00599219
-5.8728e-02,0.00495312
-5.8720e-02,0.00455469
-5.8712e-02,0.00510156
-5.8704e-02,0.005125
-5.8696e-02,0.00475
-5.8688e-02,0.00521875
-5.8680e-02,0.00521875
-5.8672e-02,0.00558594
-5.8664e-02,0.00457031
-5.8656e-02,0.00514844
-5.8648e-02,0.00464062
-5.8640e-02,0.00514844
-5.8632e-02,0.00565625
-5.8624e-02,0.00500781
-5.8616e-02,0.00444531
-5.8608e-02,0.00471875
-5.8600e-02,0.00496094
-5.8592e-02,0.00432812
-5.8584e-02,0.00521094
-5.8576e-02,0.00461719
-5.8568e-02,0.00554687
-5.8560e-02,0.00539062
-5.8552e-02,0.00509375
-5.8544e-02,0.00475
-5.8536e-02,0.00471094
-5.8528e-02,0.00427344
-5.8520e-02,0.00492187
-5.8512e-02,0.00511719
-5.8504e-02,0.00417969
-5.8496e-02,0.00496094
-5.8488e-02,0.00509375
-5.8480e-02,0.00542187
-5.8472e-02,0.00600781
-5.8464e-02,0.00524219
-5.8456e-02,0.00465625
-5.8448e-02,0.00582812
-5.8440e-02,0.00569531
-5.8432e-02,0.00538281
-5.8424e-02,0.00535937
-5.8416e-02,0.00528125
-5.8408e-02,0.00391406
-5.8400e-02,0.00371875
-5.8392e-02,0.00535156
-5.8384e-02,0.00510937
-5.8376e-02,0.0050625
-5.8368e-02,0.00627344
-5.8360e-02,0.00425
-5.8352e-02,0.00510937
-5.8344e-02,0.00452344
-5.8336e-02,0.00490625
-5.8328e-02,0.00520312
-5.8320e-02,0.00498437
-5.8312e-02,0.0050625
-5.8304e-02,0.00501562
-5.8296e-02,0.0053125
-5.8288e-02,0.00559375
-5.8280e-02,0.00564062
-5.8272e-02,0.00411719
-5.8264e-02,0.00478906
-5.8256e-02,0.005625
-5.8248e-02,0.00483594
-5.8240e-02,0.00474219
-5.8232e-02,0.00528125
-5.8224e-02,0.00614062
-5.8216e-02,0.00558594
-5.8208e-02,0.00524219
-5.8200e-02,0.0045625
-5.8192e-02,0.00417187
-5.8184e-02,0.00428906
-5.8176e-02,0.00422656
-5.8168e-02,0.0040625
-5.8160e-02,0.00469531
-5.8152e-02,0.0040625
-5.8144e-02,0.00454687
-5.8136e-02,0.00419531
-5.8128e-02,0.00450781
-5.8120e-02,0.00460937
