5-18-23_Exp1/TEK00006.CSV

Model,TBS1052C
Firmware Version,v2015-08-04-prequal4ch70_v1.3

Point Format,Y
Horizontal Units,S
Horizontal Scale,0.004
Sample Interval,3.2e-06
Filter Frequency,2e+08
Record Length,20000
Gating,0.0% to 100.0%
Probe Attenuation,10
Vertical Units,V
Vertical Offset,0
Vertical Scale,0.02
Label,
TIME,CH2
-2.2285e-02,0.005325
-2.2282e-02,0.0050125
-2.2278e-02,0.00512812
-2.2275e-02,0.00513125
-2.2272e-02,0.00555937
-2.2269e-02,0.00450937
-2.2266e-02,0.00598125
-2.2262e-02,0.00468125
-2.2259e-02,0.00510625
-2.2256e-02,0.0042625
-2.2253e-02,0.005075
-2.2250e-02,0.00391562
-2.2246e-02,0.0043375
-2.2243e-02,0.00380312
-2.2240e-02,0.00469375
-2.2237e-02,0.00457187
-2.2234e-02,0.00370312
-2.2230e-02,0.00439062
-2.2227e-02,0.0034375
-2.2224e-02,0.00420312
-2.2221e-02,0.0039625
-2.2218e-02,0.0041
-2.2214e-02,0.004075
-2.2211e-02,0.004625
-2.2208e-02,0.00341875
-2.2205e-02,0.00494375
-2.2202e-02,0.00428125
-2.2198e-02,0.00391875
-2.2195e-02,0.0036125
-2.2192e-02,0.00537812
-2.2189e-02,0.00568437
-2.2186e-02,0.00465625
-2.2182e-02,0.00488437
-2.2179e-02,0.00511875
-2.2176e-02,0.00601562
-2.2173e-02,0.0045875
-2.2170e-02,0.00614062
-2.2166e-02,0.00524687
-2.2163e-02,0.00469062
-2.2160e-02,0.00446562
-2.2157e-02,0.00470937
-2.2154e-02,0.00523125
-2.2150e-02,0.00360937
-2.2147e-02,0.00455625
-2.2144e-02,0.003725
-2.2141e-02,0.00421875
-2.2138e-02,0.00428125
-2.2134e-02,0.00500312
-2.2131e-02,0.0047375
-2.2128e-02,0.0050125
-2.2125e-02,0.00487187
-2.2122e-02,0.00524687
-2.2118e-02,0.004625
-2.2115e-02,0.00472812
-2.2112e-02,0.00493125
-2.2109e-02,0.00434062
-2.2106e-02,0.0050375
-2.2102e-02,0.004375
-2.2099e-02,0.00650312
-2.2096e-02,0.004625
-2.2093e-02,0.00534375
-2.2090e-02,0.00420937
-2.2086e-02,0.0039625
-2.2083e-02,0.00333125
-2.2080e-02,0.00391875
-2.2077e-02,0.00312812
-2.2074e-02,0.00494062
-2.2070e-02,0.00447812
-2.2067e-02,0.00529687
-2.2064e-02,0.004125
-2.2061e-02,0.00469062
-2.2058e-02,0.00401875
-2.2054e-02,0.00479687
-2.2051e-02,0.00524687
-2.2048e-02,0.00518125
-2.2045e-02,0.00550937
-2.2042e-02,0.00512187
-2.2038e-02,0.00460937
-2.2035e-02,0.00431875
-2.2032e-02,0.00549687
-2.2029e-02,0.0040375
-2.2026e-02,0.0053625
-2.2022e-02,0.00514062
-2.2019e-02,0.00584062
-2.2016e-02,0.0047125
-2.2013e-02,0.0059875
-2.2010e-02,0.00555937
-2.2006e-02,0.00435312
-2.2003e-02,0.00433437
-2.2000e-02,0.00448437
-2.1997e-02,0.00526875
-2.1994e-02,0.00419687
-2.1990e-02,0.0055125
-2.1987e-02,0.00395312
-2.1984e-02,0.005225
-2.1981e-02,0.00453437
-2.1978e-02,0.00494062
-2.1974e-02,0.00480312
-2.1971e-02,0.0043625
-2.1968e-02,0.00516875
-2.1965e-02,0.00433437
-2.1962e-02,0.00524687
-2.1958e-02,0.004175
-2.1955e-02,0.00464687
-2.1952e-02,0.00338125
-2.1949e-02,0.00484062
-2.1946e-02,0.00523125
-2.1942e-02,0.0042
-2.1939e-02,0.00453125
-2.1936e-02,0.00414687
-2.1933e-02,0.00429687
-2.1930e-02,0.00413125
-2.1926e-02,0.00475
-2.1923e-02,0.00330937
-2.1920e-02,0.00422812
-2.1917e-02,0.00399375
-2.1914e-02,0.00483125
-2.1910e-02,0.00451875
-2.1907e-02,0.00594687
-2.1904e-02,0.00507187
-2.1901e-02,0.00419062
-2.1898e-02,0.00440937
-2.1894e-02,0.00504687
-2.1891e-02,0.00448437
-2.1888e-02,0.00486875
-2.1885e-02,0.00480625
-2.1882e-02,0.00502187
-2.1878e-02,0.0054375
-2.1875e-02,0.00428437
-2.1872e-02,0.00516562
-2.1869e-02,0.00396875
-2.1866e-02,0.00574062
-2.1862e-02,0.00401562
-2.1859e-02,0.005225
-2.1856e-02,0.00427187
-2.1853e-02,0.0052625
-2.1850e-02,0.00438125
-2.1846e-02,0.0058875
-2.1843e-02,0.0048375
-2.1840e-02,0.0055875
-2.1837e-02,0.00540937
-2.1834e-02,0.00549375
-2.1830e-02,0.0055125
-2.1827e-02,0.0050875
-2.1824e-02,0.00520937
-2.1821e-02,0.00553437
-2.1818e-02,0.00660937
-2.1814e-02,0.00523125
-2.1811e-02,0.00641562
-2.1808e-02,0.00451562
-2.1805e-02,0.0049
-2.1802e-02,0.0039875
-2.1798e-02,0.00478125
-2.1795e-02,0.00455
-2.1792e-02,0.0052875
-2.1789e-02,0.00520937
-2.1786e-02,0.00515625
-2.1782e-02,0.0056125
-2.1779e-02,0.00440937
-2.1776e-02,0.00571875
-2.1773e-02,0.004775
-2.1770e-02,0.00591562
-2.1766e-02,0.00542187
-2.1763e-02,0.004775
-2.1760e-02,0.00451562
-2.1757e-02,0.0055875
-2.1754e-02,0.00475937
-2.1750e-02,0.00524062
-2.1747e-02,0.00520937
-2.1744e-02,0.0047375
-2.1741e-02,0.00515937
-2.1738e-02,0.00467187
-2.1734e-02,0.0046375
-2.1731e-02,0.0043875
-2.1728e-02,0.00547812
-2.1725e-02,0.00469375
-2.1722e-02,0.005325
-2.1718e-02,0.00410312
-2.1715e-02,0.00498437
-2.1712e-02,0.003375
-2.1709e-02,0.00434062
-2.1706e-02,0.00469687
-2.1702e-02,0.0043625
-2.1699e-02,0.00532187
-2.1696e-02,0.0048375
-2.1693e-02,0.00524062
-2.1690e-02,0.00426875
-2.1686e-02,0.00519687
-2.1683e-02,0.00451875
-2.1680e-02,0.0053375
-2.1677e-02,0.00389687
-2.1674e-02,0.0047375
-2.1670e-02,0.005275
-2.1667e-02,0.00446875
-2.1664e-02,0.00515
-2.1661e-02,0.00561562
-2.1658e-02,0.00585312
-2.1654e-02,0.00400312
-2.1651e-02,0.00565937
-2.1648e-02,0.0047125
-2.1645e-02,0.00529062
-2.1642e-02,0.00388125
-2.1638e-02,0.0044375
-2.1635e-02,0.00465312
-2.1632e-02,0.0041375
-2.1629e-02,0.00459687
-2.1626e-02,0.00545312
-2.1622e-02,0.0063125
-2.1619e-02,0.00417187
-2.1616e-02,0.00619687
-2.1613e-02,0.00513125
-2.1610e-02,0.00612812
-2.1606e-02,0.0041875
-2.1603e-02,0.00471562
-2.1600e-02,0.0049875
-2.1597e-02,0.00497812
-2.1594e-02,0.00535312
-2.1590e-02,0.00554687
-2.1587e-02,0.00603125
-2.1584e-02,0.00415312
-2.1581e-02,0.00589375
-2.1578e-02,0.00427187
-2.1574e-02,0.00569062
-2.1571e-02,0.00520625
-2.1568e-02,0.00465937
-2.1565e-02,0.00405937
-2.1562e-02,0.00555
-2.1558e-02,0.00414687
-2.1555e-02,0.00489687
-2.1552e-02,0.00390312
-2.1549e-02,0.00495937
-2.1546e-02,0.0042125
-2.1542e-02,0.00485312
-2.1539e-02,0.00359687
-2.1536e-02,0.00504375
-2.1533e-02,0.00444687
-2.1530e-02,0.00413125
-2.1526e-02,0.00425312
-2.1523e-02,0.00494375
-2.1520e-02,0.00451875
-2.1517e-02,0.00579375
-2.1514e-02,0.00550625
-2.1510e-02,0.00515
-2.1507e-02,0.00554687
-2.1504e-02,0.00542812
-2.1501e-02,0.00534375
-2.1498e-02,0.00515312
-2.1494e-02,0.005875
-2.1491e-02,0.00491875
-2.1488e-02,0.0054125
-2.1485e-02,0.00482187
-2.1482e-02,0.00512187
-2.1478e-02,0.00455937
-2.1475e-02,0.006325
-2.1472e-02,0.00594062
-2.1469e-02,0.00474687
-2.1466e-02,0.00485
-2.1462e-02,0.00460625
-2.1459e-02,0.005675
-2.1456e-02,0.00500937
-2.1453e-02,0.005475
-2.1450e-02,0.00508125
-2.1446e-02,0.0048375
-2.1443e-02,0.0048375
-2.1440e-02,0.005775
-2.1437e-02,0.00624375
-2.1434e-02,0.00406875
-2.1430e-02,0.005325
-2.1427e-02,0.00413125
-2.1424e-02,0.00592187
-2.1421e-02,0.00505312
-2.1418e-02,0.00559062
-2.1414e-02,0.00534687
-2.1411e-02,0.00653125
-2.1408e-02,0.00508125
-2.1405e-02,0.00593125
-2.1402e-02,0.00643125
-2.1398e-02,0.00533125
-2.1395e-02,0.00446562
-2.1392e-02,0.0054625
-2.1389e-02,0.00618125
-2.1386e-02,0.00545312
-2.1382e-02,0.00697187
-2.1379e-02,0.00669687
-2.1376e-02,0.00646875
-2.1373e-02,0.00680625
-2.1370e-02,0.006625
-2.1366e-02,0.00571875
-2.1363e-02,0.00652187
-2.1360e-02,0.00523125
-2.1357e-02,0.00546875
-2.1354e-02,0.00430937
-2.1350e-02,0.00560937
-2.1347e-02,0.00502812
-2.1344e-02,0.00576875
-2.1341e-02,0.00530937
-2.1338e-02,0.00558437
-2.1334e-02,0.00588125
-2.1331e-02,0.005025
-2.1328e-02,0.00454687
-2.1325e-02,0.005475
-2.1322e-02,0.0060875
-2.1318e-02,0.00449687
-2.1315e-02,0.00550937
-2.1312e-02,0.0053
-2.1309e-02,0.00589687
-2.1306e-02,0.00610312
-2.1302e-02,0.00525937
-2.1299e-02,0.00587187
-2.1296e-02,0.00508437
-2.1293e-02,0.00624375
-2.1290e-02,0.0051375
-2.1286e-02,0.00585
-2.1283e-02,0.00485312
-2.1280e-02,0.00503125
-2.1277e-02,0.00486875
-2.1274e-02,0.00486875
-2.1270e-02,0.00566562
-2.1267e-02,0.0039625
-2.1264e-02,0.00544687
-2.1261e-02,0.0040375
-2.1258e-02,0.005275
-2.1254e-02,0.00445625
-2.1251e-02,0.0055
-2.1248e-02,0.00457812
-2.1245e-02,0.005025
-2.1242e-02,0.00386875
-2.1238e-02,0.00540937
-2.1235e-02,0.00419062
-2.1232e-02,0.00500312
-2.1229e-02,0.00444062
-2.1226e-02,0.00543125
-2.1222e-02,0.00419375
-2.1219e-02,0.00530312
-2.1216e-02,0.00443125
-2.1213e-02,0.00545312
-2.1210e-02,0.00445937
-2.1206e-02,0.0052625
-2.1203e-02,0.00463437
-2.1200e-02,0.00510937
-2.1197e-02,0.0052375
-2.1194e-02,0.00595
-2.1190e-02,0.00511875
-2.1187e-02,0.00489062
-2.1184e-02,0.004825
-2.1181e-02,0.00527187
-2.1178e-02,0.00474062
-2.1174e-02,0.00401562
-2.1171e-02,0.0050125
-2.1168e-02,0.00386562
-2.1165e-02,0.00554062
-2.1162e-02,0.00521875
-2.1158e-02,0.00591875
-2.1155e-02,0.00498125
-2.1152e-02,0.005825
-2.1149e-02,0.00630312
-2.1146e-02,0.00440312
-2.1142e-02,0.0058625
-2.1139e-02,0.00403125
-2.1136e-02,0.0053875
-2.1133e-02,0.00411875
-2.1130e-02,0.0046875
-2.1126e-02,0.00472812
-2.1123e-02,0.0054375
-2.1120e-02,0.00553437
-2.1117e-02,0.00455937
-2.1114e-02,0.005125
-2.1110e-02,0.0040125
-2.1107e-02,0.00556875
-2.1104e-02,0.00514375
-2.1101e-02,0.00529687
-2.1098e-02,0.00458125
-2.1094e-02,0.00493125
-2.1091e-02,0.00495312
-2.1088e-02,0.00444062
-2.1085e-02,0.00484062
-2.1082e-02,0.00453125
-2.1078e-02,0.00590937
-2.1075e-02,0.00475937
-2.1072e-02,0.004975
-2.1069e-02,0.0046
-2.1066e-02,0.00527187
-2.1062e-02,0.00403437
-2.1059e-02,0.00505312
-2.1056e-02,0.00535937
-2.1053e-02,0.00369687
-2.1050e-02,0.00505312
-2.1046e-02,0.0051125
-2.1043e-02,0.00496875
-2.1040e-02,0.00334687
-2.1037e-02,0.00519375
-2.1034e-02,0.00394687
-2.1030e-02,0.00527812
-2.1027e-02,0.00495312
-2.1024e-02,0.0055375
-2.1021e-02,0.00426875
-2.1018e-02,0.00539062
-2.1014e-02,0.00358125
-2.1011e-02,0.00488125
-2.1008e-02,0.00445312
-2.1005e-02,0.0043125
-2.1002e-02,0.00365937
-2.0998e-02,0.0055625
-2.0995e-02,0.0050625
-2.0992e-02,0.00470312
-2.0989e-02,0.0047125
-2.0986e-02,0.0053375
-2.0982e-02,0.00511875
-2.0979e-02,0.0052125
-2.0976e-02,0.0057625
-2.0973e-02,0.00473125
-2.0970e-02,0.005975
-2.0966e-02,0.0051625
-2.0963e-02,0.00589687
-2.0960e-02,0.00444062
-2.0957e-02,0.00575937
-2.0954e-02,0.00496875
-2.0950e-02,0.00516562
-2.0947e-02,0.0050125
-2.0944e-02,0.00526875
-2.0941e-02,0.00480625
-2.0938e-02,0.005525
-2.0934e-02,0.00514687
-2.0931e-02,0.00386562
-2.0928e-02,0.0050375
-2.0925e-02,0.003875
-2.0922e-02,0.0049375
-2.0918e-02,0.00434687
-2.0915e-02,0.005425
-2.0912e-02,0.00424062
-2.0909e-02,0.003675
-2.0906e-02,0.00360625
-2.0902e-02,0.0038875
-2.0899e-02,0.0046875
-2.0896e-02,0.00369062
-2.0893e-02,0.004975
-2.0890e-02,0.00428125
-2.0886e-02,0.00455937
-2.0883e-02,0.0044375
-2.0880e-02,0.00563125
-2.0877e-02,0.00615312
-2.0874e-02,0.0045875
-2.0870e-02,0.00534062
-2.0867e-02,0.00437187
-2.0864e-02,0.0048625
-2.0861e-02,0.00406562
-2.0858e-02,0.00443125
-2.0854e-02,0.00399687
-2.0851e-02,0.0048125
-2.0848e-02,0.00414687
-2.0845e-02,0.00570312
-2.0842e-02,0.00468125
-2.0838e-02,0.0043
-2.0835e-02,0.00440625
-2.0832e-02,0.0047875
-2.0829e-02,0.00501562
-2.0826e-02,0.005025
-2.0822e-02,0.0053625
-2.0819e-02,0.00439687
-2.0816e-02,0.00550625
-2.0813e-02,0.00420312
-2.0810e-02,0.00459062
-2.0806e-02,0.0042375
-2.0803e-02,0.004425
-2.0800e-02,0.00305312
-2.0797e-02,0.0046125
-2.0794e-02,0.003775
-2.0790e-02,0.00519687
-2.0787e-02,0.00413125
-2.0784e-02,0.00409687
-2.0781e-02,0.00442812
-2.0778e-02,0.00415312
-2.0774e-02,0.00384062
-2.0771e-02,0.00475937
-2.0768e-02,0.00579687
-2.0765e-02,0.0048625
-2.0762e-02,0.00571875
-2.0758e-02,0.0035125
-2.0755e-02,0.0044
-2.0752e-02,0.0034875
-2.0749e-02,0.00475
-2.0746e-02,0.00480312
-2.0742e-02,0.00330937
-2.0739e-02,0.00445937
-2.0736e-02,0.0046625
-2.0733e-02,0.00540625
-2.0730e-02,0.00390937
-2.0726e-02,0.00574062
-2.0723e-02,0.00410625
-2.0720e-02,0.00516875
-2.0717e-02,0.00505937
-2.0714e-02,0.00585937
-2.0710e-02,0.00430312
-2.0707e-02,0.00566875
-2.0704e-02,0.00448125
-2.0701e-02,0.00552187
-2.0698e-02,0.004425
-2.0694e-02,0.00406875
-2.0691e-02,0.0035125
-2.0688e-02,0.004075
-2.0685e-02,0.00305625
-2.0682e-02,0.00420312
-2.0678e-02,0.004925
-2.0675e-02,0.00492187
-2.0672e-02,0.004725
-2.0669e-02,0.004825
-2.0666e-02,0.005325
-2.0662e-02,0.00417187
-2.0659e-02,0.00528125
-2.0656e-02,0.00455312
-2.0653e-02,0.00540312
-2.0650e-02,0.00386875
-2.0646e-02,0.00545312
-2.0643e-02,0.00509687
-2.0640e-02,0.00434687
-2.0637e-02,0.005175
-2.0634e-02,0.0052
-2.0630e-02,0.0053875
-2.0627e-02,0.003975
-2.0624e-02,0.00559687
-2.0621e-02,0.00505937
-2.0618e-02,0.00574687
-2.0614e-02,0.00454687
-2.0611e-02,0.00534375
-2.0608e-02,0.0056125
-2.0605e-02,0.00535937
-2.0602e-02,0.00550937
-2.0598e-02,0.0055875
-2.0595e-02,0.00555937
-2.0592e-02,0.00418437
-2.0589e-02,0.00540937
-2.0586e-02,0.0044875
-2.0582e-02,0.00511562
-2.0579e-02,0.0045375
-2.0576e-02,0.00431875
-2.0573e-02,0.00420625
-2.0570e-02,0.00457812
-2.0566e-02,0.0046375
-2.0563e-02,0.00498437
-2.0560e-02,0.005675
-2.0557e-02,0.00451875
-2.0554e-02,0.00540312
-2.0550e-02,0.0047875
-2.0547e-02,0.00495312
-2.0544e-02,0.00404062
-2.0541e-02,0.00527187
-2.0538e-02,0.00393125
-2.0534e-02,0.00505312
-2.0531e-02,0.00421562
-2.0528e-02,0.00435312
-2.0525e-02,0.00428125
-2.0522e-02,0.0053625
-2.0518e-02,0.00435312
-2.0515e-02,0.00489687
-2.0512e-02,0.00537812
-2.0509e-02,0.00471875
-2.0506e-02,0.00535625
-2.0502e-02,0.00480937
-2.0499e-02,0.00523437
-2.0496e-02,0.00457187
-2.0493e-02,0.00494687
-2.0490e-02,0.003825
-2.0486e-02,0.00487812
-2.0483e-02,0.00434062
-2.0480e-02,0.00525312
-2.0477e-02,0.00424062
-2.0474e-02,0.0053375
-2.0470e-02,0.00375312
-2.0467e-02,0.00549062
-2.0464e-02,0.00538437
-2.0461e-02,0.00470937
-2.0458e-02,0.00449062
-2.0454e-02,0.00550625
-2.0451e-02,0.00630937
-2.0448e-02,0.00499375
-2.0445e-02,0.00602812
-2.0442e-02,0.00502812
-2.0438e-02,0.00479375
-2.0435e-02,0.00365
-2.0432e-02,0.005575
-2.0429e-02,0.00522812
-2.0426e-02,0.0045375
-2.0422e-02,0.00425
-2.0419e-02,0.004425
-2.0416e-02,0.00479062
-2.0413e-02,0.0038875
-2.0410e-02,0.0057125
-2.0406e-02,0.00514375
-2.0403e-02,0.00527812
-2.0400e-02,0.00452187
-2.0397e-02,0.005125
-2.0394e-02,0.00445312
-2.0390e-02,0.0044625
-2.0387e-02,0.00501875
-2.0384e-02,0.00482187
-2.0381e-02,0.00485937
-2.0378e-02,0.0035875
-2.0374e-02,0.00419687
-2.0371e-02,0.00429062
-2.0368e-02,0.00469375
-2.0365e-02,0.00442812
-2.0362e-02,0.005975
-2.0358e-02,0.0046375
-2.0355e-02,0.00582812
-2.0352e-02,0.0049125
-2.0349e-02,0.00466875
-2.0346e-02,0.004575
-2.0342e-02,0.0056625
-2.0339e-02,0.0055375
-2.0336e-02,0.00503125
-2.0333e-02,0.00528125
-2.0330e-02,0.005425
-2.0326e-02,0.00636562
-2.0323e-02,0.00465625
-2.0320e-02,0.006575
-2.0317e-02,0.00453437
-2.0314e-02,0.00545312
-2.0310e-02,0.00443437
-2.0307e-02,0.0042375
-2.0304e-02,0.00366562
-2.0301e-02,0.00563437
-2.0298e-02,0.00545625
-2.0294e-02,0.00479062
-2.0291e-02,0.00460312
-2.0288e-02,0.0035875
-2.0285e-02,0.00341875
-2.0282e-02,0.00384687
-2.0278e-02,0.00427187
-2.0275e-02,0.00363125
-2.0272e-02,0.0044625
-2.0269e-02,0.003575
-2.0266e-02,0.00480937
-2.0262e-02,0.00422187
-2.0259e-02,0.0053625
-2.0256e-02,0.004725
-2.0253e-02,0.00597187
-2.0250e-02,0.00558437
-2.0246e-02,0.00613125
-2.0243e-02,0.0048125
-2.0240e-02,0.00597187
-2.0237e-02,0.00492187
-2.0234e-02,0.00603125
-2.0230e-02,0.00481562
-2.0227e-02,0.004825
-2.0224e-02,0.00459687
-2.0221e-02,0.0057125
-2.0218e-02,0.00645937
-2.0214e-02,0.00515625
-2.0211e-02,0.00595937
-2.0208e-02,0.00534375
-2.0205e-02,0.00554062
-2.0202e-02,0.0038125
-2.0198e-02,0.00455312
-2.0195e-02,0.00441875
-2.0192e-02,0.00409687
-2.0189e-02,0.00543125
-2.0186e-02,0.0044125
-2.0182e-02,0.00473125
-2.0179e-02,0.00464687
-2.0176e-02,0.00524687
-2.0173e-02,0.00364062
-2.0170e-02,0.00511562
-2.0166e-02,0.0040375
-2.0163e-02,0.00523125
-2.0160e-02,0.00405937
-2.0157e-02,0.00513125
-2.0154e-02,0.005075
-2.0150e-02,0.0051375
-2.0147e-02,0.00577812
-2.0144e-02,0.004425
-2.0141e-02,0.00507187
-2.0138e-02,0.00439375
-2.0134e-02,0.0060125
-2.0131e-02,0.00524687
-2.0128e-02,0.0060125
-2.0125e-02,0.00531875
-2.0122e-02,0.00523125
-2.0118e-02,0.0043875
-2.0115e-02,0.00464375
-2.0112e-02,0.0038875
-2.0109e-02,0.00544375
-2.0106e-02,0.00413437
-2.0102e-02,0.0056
-2.0099e-02,0.00534687
-2.0096e-02,0.00477812
-2.0093e-02,0.00526562
-2.0090e-02,0.004375
-2.0086e-02,0.00484687
-2.0083e-02,0.00545
-2.0080e-02,0.00597812
-2.0077e-02,0.00406875
-2.0074e-02,0.0046625
-2.0070e-02,0.00409062
-2.0067e-02,0.00438125
-2.0064e-02,0.00521562
-2.0061e-02,0.00372812
-2.0058e-02,0.00475312
-2.0054e-02,0.0046625
-2.0051e-02,0.00475625
-2.0048e-02,0.00403125
-2.0045e-02,0.005475
-2.0042e-02,0.00455
-2.0038e-02,0.00436875
-2.0035e-02,0.00373437
-2.0032e-02,0.004925
-2.0029e-02,0.00492187
-2.0026e-02,0.00373125
-2.0022e-02,0.0042625
-2.0019e-02,0.0044375
-2.0016e-02,0.00536875
-2.0013e-02,0.00524062
-2.0010e-02,0.004975
-2.0006e-02,0.0044875
-2.0003e-02,0.0057375
-2.0000e-02,0.0046875
-1.9997e-02,0.00615937
-1.9994e-02,0.00465937
-1.9990e-02,0.00574062
-1.9987e-02,0.00440625
-1.9984e-02,0.00560625
-1.9981e-02,0.0050125
-1.9978e-02,0.00456562
-1.9974e-02,0.00416875
-1.9971e-02,0.00538437
-1.9968e-02,0.0045875
-1.9965e-02,0.0049125
-1.9962e-02,0.005075
-1.9958e-02,0.00414687
-1.9955e-02,0.00580312
-1.9952e-02,0.00459062
-1.9949e-02,0.00480625
-1.9946e-02,0.00486875
-1.9942e-02,0.0053
-1.9939e-02,0.00366875
-1.9936e-02,0.004975
-1.9933e-02,0.00529687
-1.9930e-02,0.0050375
-1.9926e-02,0.00454687
-1.9923e-02,0.0046875
-1.9920e-02,0.0051875
-1.9917e-02,0.0041375
-1.9914e-02,0.0057625
-1.9910e-02,0.00483125
-1.9907e-02,0.00481875
-1.9904e-02,0.004325
-1.9901e-02,0.0051875
-1.9898e-02,0.00542187
-1.9894e-02,0.00483437
-1.9891e-02,0.00543125
-1.9888e-02,0.005175
-1.9885e-02,0.00538125
-1.9882e-02,0.00352187
-1.9878e-02,0.00449062
-1.9875e-02,0.004425
-1.9872e-02,0.00485
-1.9869e-02,0.00444062
-1.9866e-02,0.00472187
-1.9862e-02,0.00474062
-1.9859e-02,0.00334687
-1.9856e-02,0.00475
-1.9853e-02,0.0042625
-1.9850e-02,0.00551875
-1.9846e-02,0.00478125
-1.9843e-02,0.00517187
-1.9840e-02,0.00374062
-1.9837e-02,0.00444687
-1.9834e-02,0.00341875
-1.9830e-02,0.0047375
-1.9827e-02,0.00358437
-1.9824e-02,0.00580937
-1.9821e-02,0.00424375
-1.9818e-02,0.004825
-1.9814e-02,0.00427187
-1.9811e-02,0.004775
-1.9808e-02,0.00430937
-1.9805e-02,0.00514687
-1.9802e-02,0.0046875
-1.9798e-02,0.00537812
-1.9795e-02,0.00490312
-1.9792e-02,0.00554375
-1.9789e-02,0.00535
-1.9786e-02,0.00494687
-1.9782e-02,0.00539062
-1.9779e-02,0.00414687
-1.9776e-02,0.00460937
-1.9773e-02,0.00436875
-1.9770e-02,0.00504062
-1.9766e-02,0.00425937
-1.9763e-02,0.0049625
-1.9760e-02,0.0048
-1.9757e-02,0.00600312
-1.9754e-02,0.00614687
-1.9750e-02,0.00466875
-1.9747e-02,0.00564062
-1.9744e-02,0.00410937
-1.9741e-02,0.00553437
-1.9738e-02,0.00439687
-1.9734e-02,0.00554062
-1.9731e-02,0.00421562
-1.9728e-02,0.00584062
-1.9725e-02,0.0059125
-1.9722e-02,0.00497812
-1.9718e-02,0.00425
-1.9715e-02,0.00445312
-1.9712e-02,0.003825
-1.9709e-02,0.00511875
-1.9706e-02,0.0055625
-1.9702e-02,0.00430937
-1.9699e-02,0.0053
-1.9696e-02,0.0046875
-1.9693e-02,0.00524687
-1.9690e-02,0.00506875
-1.9686e-02,0.005225
-1.9683e-02,0.00420312
-1.9680e-02,0.0052625
-1.9677e-02,0.00419062
-1.9674e-02,0.00464062
-1.9670e-02,0.00349687
-1.9667e-02,0.0049875
-1.9664e-02,0.00583125
-1.9661e-02,0.00555937
-1.9658e-02,0.00501875
-1.9654e-02,0.00499375
-1.9651e-02,0.00564687
-1.9648e-02,0.00375625
-1.9645e-02,0.00497187
-1.9642e-02,0.00489062
-1.9638e-02,0.00596875
-1.9635e-02,0.00485312
-1.9632e-02,0.0054875
-1.9629e-02,0.00619687
-1.9626e-02,0.00516875
-1.9622e-02,0.0055125
-1.9619e-02,0.00484375
-1.9616e-02,0.005525
-1.9613e-02,0.00452187
-1.9610e-02,0.005125
-1.9606e-02,0.00420312
-1.9603e-02,0.00540625
-1.9600e-02,0.00396875
-1.9597e-02,0.0061625
-1.9594e-02,0.00474062
-1.9590e-02,0.00524062
-1.9587e-02,0.0044375
-1.9584e-02,0.0050875
-1.9581e-02,0.00390937
-1.9578e-02,0.0041375
-1.9574e-02,0.004175
-1.9571e-02,0.00504062
-1.9568e-02,0.0052875
-1.9565e-02,0.00328125
-1.9562e-02,0.00448125
-1.9558e-02,0.003925
-1.9555e-02,0.004975
-1.9552e-02,0.00407187
-1.9549e-02,0.00564687
-1.9546e-02,0.00486875
-1.9542e-02,0.00489687
-1.9539e-02,0.00484062
-1.9536e-02,0.00472812
-1.9533e-02,0.00525937
-1.9530e-02,0.00425
-1.9526e-02,0.005375
-1.9523e-02,0.00493437
-1.9520e-02,0.00618125
-1.9517e-02,0.00576562
-1.9514e-02,0.00547187
-1.9510e-02,0.00497812
-1.9507e-02,0.00535312
-1.9504e-02,0.00459375
-1.9501e-02,0.00579687
-1.9498e-02,0.006325
-1.9494e-02,0.00552812
-1.9491e-02,0.00505312
