6-1-23_Exp2/Exp2b/TEK00004.CSV

Model,TBS1052C
Firmware Version,v2015-08-04-prequal4ch70_v1.3

Point Format,Y
Horizontal Units,S
Horizontal Scale,0.004
Sample Interval,3.2e-06
Filter Frequency,2e+08
Record Length,20000
Gating,0.0% to 100.0%
Probe Attenuation,10
Vertical Units,V
Vertical Offset,0
Vertical Scale,0.2
Label,
TIME,CH1
-2.1568e-02,0.000374981
-2.1565e-02,0.000531231
-2.1562e-02,6.24809e-05
-2.1558e-02,0.000312481
-2.1555e-02,0.000406231
-2.1552e-02,0.000562481
-2.1549e-02,0.000343731
-2.1546e-02,0.000499981
-2.1542e-02,-1.90735e-08
-2.1539e-02,0.000249981
-2.1536e-02,3.12309e-05
-2.1533e-02,-0.000375019
-2.1530e-02,0.000156231
-2.1526e-02,0.000281231
-2.1523e-02,0.000124981
-2.1520e-02,0.000187481
-2.1517e-02,0.000218731
-2.1514e-02,0.000124981
-2.1510e-02,3.12309e-05
-2.1507e-02,0.000124981
-2.1504e-02,0.000468731
-2.1501e-02,9.37309e-05
-2.1498e-02,-3.12691e-05
-2.1494e-02,0.000312481
-2.1491e-02,0.000468731
-2.1488e-02,0.000812481
-2.1485e-02,0.000687481
-2.1482e-02,0.000249981
-2.1478e-02,0.000249981
-2.1475e-02,0.000374981
-2.1472e-02,0.00134373
-2.1469e-02,0.000374981
-2.1466e-02,0.000218731
-2.1462e-02,0.000624981
-2.1459e-02,0.000468731
-2.1456e-02,0.000437481
-2.1453e-02,0.00103123
-2.1450e-02,0.000468731
-2.1446e-02,0.000124981
-2.1443e-02,0.000187481
-2.1440e-02,-3.12691e-05
-2.1437e-02,0.000249981
-2.1434e-02,6.24809e-05
-2.1430e-02,-3.12691e-05
-2.1427e-02,-6.25191e-05
-2.1424e-02,9.37309e-05
-2.1421e-02,-3.12691e-05
-2.1418e-02,0.000406231
-2.1414e-02,0.000374981
-2.1411e-02,0.000593731
-2.1408e-02,0.000687481
-2.1405e-02,0.000906231
-2.1402e-02,0.000781231
-2.1398e-02,0.00168748
-2.1395e-02,0.00131248
-2.1392e-02,0.000749981
-2.1389e-02,0.00103123
-2.1386e-02,0.00121873
-2.1382e-02,0.000874981
-2.1379e-02,0.00168748
-2.1376e-02,0.000968731
-2.1373e-02,0.000624981
-2.1370e-02,0.000249981
-2.1366e-02,0.000374981
-2.1363e-02,0.000718731
-2.1360e-02,0.000374981
-2.1357e-02,0.000624981
-2.1354e-02,0.000249981
-2.1350e-02,0.000624981
-2.1347e-02,0.000624981
-2.1344e-02,0.000906231
-2.1341e-02,0.000249981
-2.1338e-02,0.000531231
-2.1334e-02,0.000874981
-2.1331e-02,0.000562481
-2.1328e-02,0.000218731
-2.1325e-02,0.000187481
-2.1322e-02,0.000343731
-2.1318e-02,0.000249981
-2.1315e-02,0.000468731
-2.1312e-02,0.000656231
-2.1309e-02,0.00118748
-2.1306e-02,0.000624981
-2.1302e-02,0.000156231
-2.1299e-02,0.000531231
-2.1296e-02,0.000312481
-2.1293e-02,-0.000312519
-2.1290e-02,0.000124981
-2.1286e-02,3.12309e-05
-2.1283e-02,6.24809e-05
-2.1280e-02,3.12309e-05
-2.1277e-02,3.12309e-05
-2.1274e-02,0.000218731
-2.1270e-02,-3.12691e-05
-2.1267e-02,0.000187481
-2.1264e-02,3.12309e-05
-2.1261e-02,0.000187481
-2.1258e-02,0.000218731
-2.1254e-02,-0.000156269
-2.1251e-02,9.37309e-05
-2.1248e-02,0.000281231
-2.1245e-02,9.37309e-05
-2.1242e-02,0.000124981
-2.1238e-02,9.37309e-05
-2.1235e-02,-1.90735e-08
-2.1232e-02,0.000156231
-2.1229e-02,-3.12691e-05
-2.1226e-02,0.000249981
-2.1222e-02,0.000374981
-2.1219e-02,0.000124981
-2.1216e-02,0.000468731
-2.1213e-02,0.000718731
-2.1210e-02,0.000531231
-2.1206e-02,0.000124981
-2.1203e-02,0.000718731
-2.1200e-02,0.000218731
-2.1197e-02,0.000749981
-2.1194e-02,0.000656231
-2.1190e-02,0.000749981
-2.1187e-02,0.000874981
-2.1184e-02,0.000687481
-2.1181e-02,0.000281231
-2.1178e-02,0.000218731
-2.1174e-02,0.000624981
-2.1171e-02,0.000812481
-2.1168e-02,0.000406231
-2.1165e-02,0.000562481
-2.1162e-02,0.000656231
-2.1158e-02,-3.12691e-05
-2.1155e-02,0.000187481
-2.1152e-02,0.000593731
-2.1149e-02,0.000156231
-2.1146e-02,0.000156231
-2.1142e-02,0.000124981
-2.1139e-02,-0.000250019
-2.1136e-02,0.000218731
-2.1133e-02,0.000624981
-2.1130e-02,0.000468731
-2.1126e-02,0.000156231
-2.1123e-02,-1.90735e-08
-2.1120e-02,0.000187481
-2.1117e-02,3.12309e-05
-2.1114e-02,-0.000125019
-2.1110e-02,0.000249981
-2.1107e-02,0.000187481
-2.1104e-02,-3.12691e-05
-2.1101e-02,-0.000125019
-2.1098e-02,3.12309e-05
-2.1094e-02,-3.12691e-05
-2.1091e-02,0.000343731
-2.1088e-02,0.000156231
-2.1085e-02,9.37309e-05
-2.1082e-02,0.000124981
-2.1078e-02,9.37309e-05
-2.1075e-02,-3.12691e-05
-2.1072e-02,-1.90735e-08
-2.1069e-02,-3.12691e-05
-2.1066e-02,3.12309e-05
-2.1062e-02,0.000249981
-2.1059e-02,-6.25191e-05
-2.1056e-02,0.000124981
-2.1053e-02,-6.25191e-05
-2.1050e-02,0.000124981
-2.1046e-02,9.37309e-05
-2.1043e-02,0.000187481
-2.1040e-02,0.000312481
-2.1037e-02,0.000156231
-2.1034e-02,0.000687481
-2.1030e-02,0.00178123
-2.1027e-02,0.000843731
-2.1024e-02,0.000249981
-2.1021e-02,0.000312481
-2.1018e-02,0.000562481
-2.1014e-02,0.000124981
-2.1011e-02,0.000187481
-2.1008e-02,0.00131248
-2.1005e-02,0.00124998
-2.1002e-02,0.000468731
-2.0998e-02,0.000437481
-2.0995e-02,9.37309e-05
-2.0992e-02,-3.12691e-05
-2.0989e-02,0.000406231
-2.0986e-02,0.000374981
-2.0982e-02,-3.12691e-05
-2.0979e-02,-1.90735e-08
-2.0976e-02,-9.37691e-05
-2.0973e-02,0.000124981
-2.0970e-02,-1.90735e-08
-2.0966e-02,-6.25191e-05
-2.0963e-02,-3.12691e-05
-2.0960e-02,0.000249981
-2.0957e-02,0.000124981
-2.0954e-02,-3.12691e-05
-2.0950e-02,-3.12691e-05
-2.0947e-02,-0.000125019
-2.0944e-02,0.000156231
-2.0941e-02,3.12309e-05
-2.0938e-02,0.000156231
-2.0934e-02,-0.000125019
-2.0931e-02,-0.000250019
-2.0928e-02,-3.12691e-05
-2.0925e-02,-3.12691e-05
-2.0922e-02,0.000249981
-2.0918e-02,9.37309e-05
-2.0915e-02,0.000249981
-2.0912e-02,0.000218731
-2.0909e-02,0.000124981
-2.0906e-02,0.000562481
-2.0902e-02,0.000281231
-2.0899e-02,-9.37691e-05
-2.0896e-02,-0.000156269
-2.0893e-02,-3.12691e-05
-2.0890e-02,0.000156231
-2.0886e-02,9.37309e-05
-2.0883e-02,0.000124981
-2.0880e-02,9.37309e-05
-2.0877e-02,9.37309e-05
-2.0874e-02,-1.90735e-08
-2.0870e-02,3.12309e-05
-2.0867e-02,6.24809e-05
-2.0864e-02,0.000343731
-2.0861e-02,0.000624981
-2.0858e-02,0.000531231
-2.0854e-02,0.000124981
-2.0851e-02,0.000187481
-2.0848e-02,0.000687481
-2.0845e-02,0.000468731
-2.0842e-02,0.000624981
-2.0838e-02,0.000531231
-2.0835e-02,0.000187481
-2.0832e-02,0.000374981
-2.0829e-02,0.000968731
-2.0826e-02,-3.12691e-05
-2.0822e-02,0.000249981
-2.0819e-02,0.000468731
-2.0816e-02,0.000374981
-2.0813e-02,0.000124981
-2.0810e-02,-0.000250019
-2.0806e-02,-0.000250019
-2.0803e-02,6.24809e-05
-2.0800e-02,0.000124981
-2.0797e-02,9.37309e-05
-2.0794e-02,-3.12691e-05
-2.0790e-02,6.24809e-05
-2.0787e-02,9.37309e-05
-2.0784e-02,0.000187481
-2.0781e-02,0.000624981
-2.0778e-02,0.000468731
-2.0774e-02,-3.12691e-05
-2.0771e-02,-3.12691e-05
-2.0768e-02,-0.000312519
-2.0765e-02,-3.12691e-05
-2.0762e-02,0.000343731
-2.0758e-02,-1.90735e-08
-2.0755e-02,3.12309e-05
-2.0752e-02,0.000281231
-2.0749e-02,0.000187481
-2.0746e-02,-3.12691e-05
-2.0742e-02,0.000562481
-2.0739e-02,-3.12691e-05
-2.0736e-02,0.000187481
-2.0733e-02,9.37309e-05
-2.0730e-02,-3.12691e-05
-2.0726e-02,-0.000406269
-2.0723e-02,-9.37691e-05
-2.0720e-02,-3.12691e-05
-2.0717e-02,-9.37691e-05
-2.0714e-02,-0.000218769
-2.0710e-02,0.000124981
-2.0707e-02,0.000406231
-2.0704e-02,0.000374981
-2.0701e-02,0.000437481
-2.0698e-02,0.000406231
-2.0694e-02,9.37309e-05
-2.0691e-02,0.000906231
-2.0688e-02,3.12309e-05
-2.0685e-02,-3.12691e-05
-2.0682e-02,0.000281231
-2.0678e-02,0.000124981
-2.0675e-02,0.000406231
-2.0672e-02,0.000124981
-2.0669e-02,6.24809e-05
-2.0666e-02,-9.37691e-05
-2.0662e-02,0.000312481
-2.0659e-02,0.000249981
-2.0656e-02,-3.12691e-05
-2.0653e-02,-0.000312519
-2.0650e-02,0.000156231
-2.0646e-02,6.24809e-05
-2.0643e-02,0.000312481
-2.0640e-02,9.37309e-05
-2.0637e-02,-0.000187519
-2.0634e-02,-9.37691e-05
-2.0630e-02,-0.000125019
-2.0627e-02,-1.90735e-08
-2.0624e-02,3.12309e-05
-2.0621e-02,-9.37691e-05
-2.0618e-02,-9.37691e-05
-2.0614e-02,0.000249981
-2.0611e-02,0.000156231
-2.0608e-02,0.000406231
-2.0605e-02,9.37309e-05
-2.0602e-02,0.000312481
-2.0598e-02,0.000937481
-2.0595e-02,0.000187481
-2.0592e-02,0.000124981
-2.0589e-02,-9.37691e-05
-2.0586e-02,6.24809e-05
-2.0582e-02,0.000312481
-2.0579e-02,0.000124981
-2.0576e-02,0.000406231
-2.0573e-02,0.000124981
-2.0570e-02,0.000124981
-2.0566e-02,0.000312481
-2.0563e-02,-1.90735e-08
-2.0560e-02,0.000187481
-2.0557e-02,6.24809e-05
-2.0554e-02,0.000624981
-2.0550e-02,0.000874981
-2.0547e-02,0.000718731
-2.0544e-02,0.000312481
-2.0541e-02,0.000999981
-2.0538e-02,0.00137498
-2.0534e-02,0.00109373
-2.0531e-02,0.000968731
-2.0528e-02,0.00115623
-2.0525e-02,0.000187481
-2.0522e-02,0.000687481
-2.0518e-02,0.000624981
-2.0515e-02,0.000468731
-2.0512e-02,0.000187481
-2.0509e-02,0.000656231
-2.0506e-02,0.000156231
-2.0502e-02,0.000249981
-2.0499e-02,0.000249981
-2.0496e-02,0.000343731
-2.0493e-02,0.000187481
-2.0490e-02,0.000968731
-2.0486e-02,0.000437481
-2.0483e-02,0.00181248
-2.0480e-02,0.000968731
-2.0477e-02,0.000124981
-2.0474e-02,3.12309e-05
-2.0470e-02,6.24809e-05
-2.0467e-02,0.000687481
-2.0464e-02,0.000593731
-2.0461e-02,0.000531231
-2.0458e-02,0.000687481
-2.0454e-02,9.37309e-05
-2.0451e-02,0.000624981
-2.0448e-02,0.000656231
-2.0445e-02,0.000187481
-2.0442e-02,0.000468731
-2.0438e-02,6.24809e-05
-2.0435e-02,-0.000281269
-2.0432e-02,-0.000312519
-2.0429e-02,-0.000250019
-2.0426e-02,-0.000406269
-2.0422e-02,-0.000312519
-2.0419e-02,-0.000468769
-2.0416e-02,-0.000625019
-2.0413e-02,-0.000750019
-2.0410e-02,-9.37691e-05
-2.0406e-02,-0.000250019
-2.0403e-02,-0.000531269
-2.0400e-02,-0.000250019
-2.0397e-02,9.37309e-05
-2.0394e-02,-3.12691e-05
-2.0390e-02,0.000187481
-2.0387e-02,0.000437481
-2.0384e-02,0.000312481
-2.0381e-02,-3.12691e-05
-2.0378e-02,0.000218731
-2.0374e-02,3.12309e-05
-2.0371e-02,9.37309e-05
-2.0368e-02,-9.37691e-05
-2.0365e-02,0.000218731
-2.0362e-02,-1.90735e-08
-2.0358e-02,0.000218731
-2.0355e-02,9.37309e-05
-2.0352e-02,0.000187481
-2.0349e-02,0.000156231
-2.0346e-02,3.12309e-05
-2.0342e-02,0.000374981
-2.0339e-02,0.000468731
-2.0336e-02,0.00109373
-2.0333e-02,0.000624981
-2.0330e-02,-0.000125019
-2.0326e-02,-1.90735e-08
-2.0323e-02,-6.25191e-05
-2.0320e-02,0.000406231
-2.0317e-02,0.000249981
-2.0314e-02,0.000124981
-2.0310e-02,9.37309e-05
-2.0307e-02,-0.000187519
-2.0304e-02,9.37309e-05
-2.0301e-02,0.000124981
-2.0298e-02,-3.12691e-05
-2.0294e-02,0.000249981
-2.0291e-02,0.000124981
-2.0288e-02,0.000249981
-2.0285e-02,-6.25191e-05
-2.0282e-02,3.12309e-05
-2.0278e-02,-9.37691e-05
-2.0275e-02,-1.90735e-08
-2.0272e-02,-0.000156269
-2.0269e-02,-9.37691e-05
-2.0266e-02,3.12309e-05
-2.0262e-02,0.000312481
-2.0259e-02,-3.12691e-05
-2.0256e-02,0.00103123
-2.0253e-02,0.000499981
-2.0250e-02,3.12309e-05
-2.0246e-02,-0.000531269
-2.0243e-02,-0.000875019
-2.0240e-02,-0.000312519
-2.0237e-02,-0.000187519
-2.0234e-02,-0.000218769
-2.0230e-02,-0.000312519
-2.0227e-02,-0.000218769
-2.0224e-02,-0.000562519
-2.0221e-02,-0.00103127
-2.0218e-02,-0.00137502
-2.0214e-02,-0.000218769
-2.0211e-02,-0.000125019
-2.0208e-02,0.000249981
-2.0205e-02,-9.37691e-05
-2.0202e-02,-1.90735e-08
-2.0198e-02,0.000124981
-2.0195e-02,0.000124981
-2.0192e-02,-1.90735e-08
-2.0189e-02,0.000124981
-2.0186e-02,0.000249981
-2.0182e-02,0.000156231
-2.0179e-02,6.24809e-05
-2.0176e-02,0.000187481
-2.0173e-02,0.000218731
-2.0170e-02,0.000218731
-2.0166e-02,0.000187481
-2.0163e-02,6.24809e-05
-2.0160e-02,6.24809e-05
-2.0157e-02,0.000499981
-2.0154e-02,9.37309e-05
-2.0150e-02,0.000187481
-2.0147e-02,-0.000250019
-2.0144e-02,-3.12691e-05
-2.0141e-02,0.000437481
-2.0138e-02,0.000812481
-2.0134e-02,0.000187481
-2.0131e-02,3.12309e-05
-2.0128e-02,-0.000187519
-2.0125e-02,-1.90735e-08
-2.0122e-02,6.24809e-05
-2.0118e-02,3.12309e-05
-2.0115e-02,0.000468731
-2.0112e-02,0.000406231
-2.0109e-02,0.000187481
-2.0106e-02,6.24809e-05
-2.0102e-02,-0.000156269
-2.0099e-02,-3.12691e-05
-2.0096e-02,-3.12691e-05
-2.0093e-02,0.000156231
-2.0090e-02,6.24809e-05
-2.0086e-02,0.00118748
-2.0083e-02,0.000312481
-2.0080e-02,0.000374981
-2.0077e-02,0.000187481
-2.0074e-02,0.000156231
-2.0070e-02,0.000468731
-2.0067e-02,0.000124981
-2.0064e-02,0.000124981
-2.0061e-02,0.000218731
-2.0058e-02,0.000249981
-2.0054e-02,9.37309e-05
-2.0051e-02,-0.000406269
-2.0048e-02,0.000593731
-2.0045e-02,0.000374981
-2.0042e-02,-3.12691e-05
-2.0038e-02,0.000437481
-2.0035e-02,0.000187481
-2.0032e-02,9.37309e-05
-2.0029e-02,0.000718731
-2.0026e-02,0.000406231
-2.0022e-02,0.000374981
-2.0019e-02,9.37309e-05
-2.0016e-02,-0.000125019
-2.0013e-02,0.000249981
-2.0010e-02,9.37309e-05
-2.0006e-02,-3.12691e-05
-2.0003e-02,0.000124981
-2.0000e-02,0.000656231
-1.9997e-02,0.000374981
-1.9994e-02,0.000499981
-1.9990e-02,0.000187481
-1.9987e-02,9.37309e-05
-1.9984e-02,0.000312481
-1.9981e-02,9.37309e-05
-1.9978e-02,0.000468731
-1.9974e-02,-0.000218769
-1.9971e-02,6.24809e-05
-1.9968e-02,0.000124981
-1.9965e-02,-9.37691e-05
-1.9962e-02,9.37309e-05
-1.9958e-02,0.000249981
-1.9955e-02,0.000281231
-1.9952e-02,0.000281231
-1.9949e-02,0.000468731
-1.9946e-02,-0.000281269
-1.9942e-02,0.000124981
-1.9939e-02,6.24809e-05
-1.9936e-02,3.12309e-05
-1.9933e-02,-0.000343769
-1.9930e-02,-3.12691e-05
-1.9926e-02,0.000749981
-1.9923e-02,0.000249981
-1.9920e-02,0.000124981
-1.9917e-02,0.000749981
-1.9914e-02,-0.000125019
-1.9910e-02,0.000374981
-1.9907e-02,9.37309e-05
-1.9904e-02,0.000187481
-1.9901e-02,0.000468731
-1.9898e-02,0.000781231
-1.9894e-02,9.37309e-05
-1.9891e-02,0.000593731
-1.9888e-02,0.000374981
-1.9885e-02,0.000218731
-1.9882e-02,0.000312481
-1.9878e-02,9.37309e-05
-1.9875e-02,0.000124981
-1.9872e-02,0.000499981
-1.9869e-02,3.12309e-05
-1.9866e-02,0.000124981
-1.9862e-02,0.000187481
-1.9859e-02,0.000124981
-1.9856e-02,-3.12691e-05
-1.9853e-02,0.000124981
-1.9850e-02,0.000124981
-1.9846e-02,0.000249981
-1.9843e-02,0.000249981
-1.9840e-02,0.000187481
-1.9837e-02,0.000406231
-1.9834e-02,0.000937481
-1.9830e-02,-9.37691e-05
-1.9827e-02,0.000374981
-1.9824e-02,0.000812481
-1.9821e-02,0.00124998
-1.9818e-02,0.000281231
-1.9814e-02,0.000343731
-1.9811e-02,0.000187481
-1.9808e-02,0.00109373
-1.9805e-02,0.000468731
-1.9802e-02,9.37309e-05
-1.9798e-02,6.24809e-05
-1.9795e-02,-3.12691e-05
-1.9792e-02,-0.000156269
-1.9789e-02,9.37309e-05
-1.9786e-02,-6.25191e-05
-1.9782e-02,6.24809e-05
-1.9779e-02,0.000187481
-1.9776e-02,-0.000250019
-1.9773e-02,-0.000312519
-1.9770e-02,9.37309e-05
-1.9766e-02,0.000124981
-1.9763e-02,3.12309e-05
-1.9760e-02,0.000406231
-1.9757e-02,0.000187481
-1.9754e-02,3.12309e-05
-1.9750e-02,9.37309e-05
-1.9747e-02,0.000156231
-1.9744e-02,0.000124981
-1.9741e-02,-0.000250019
-1.9738e-02,-0.000843769
-1.9734e-02,-3.12691e-05
-1.9731e-02,-0.000125019
-1.9728e-02,0.000124981
-1.9725e-02,0.000124981
-1.9722e-02,0.000406231
-1.9718e-02,9.37309e-05
-1.9715e-02,0.000468731
-1.9712e-02,0.000312481
-1.9709e-02,0.000562481
-1.9706e-02,0.000656231
-1.9702e-02,0.000468731
-1.9699e-02,0.000312481
-1.9696e-02,0.000124981
-1.9693e-02,9.37309e-05
-1.9690e-02,0.000374981
-1.9686e-02,3.12309e-05
-1.9683e-02,3.12309e-05
-1.9680e-02,-6.25191e-05
-1.9677e-02,-3.12691e-05
-1.9674e-02,-6.25191e-05
-1.9670e-02,0.000312481
-1.9667e-02,0.000124981
-1.9664e-02,9.37309e-05
-1.9661e-02,0.000874981
-1.9658e-02,0.000343731
-1.9654e-02,-9.37691e-05
-1.9651e-02,0.000468731
-1.9648e-02,3.12309e-05
-1.9645e-02,-6.25191e-05
-1.9642e-02,0.000312481
-1.9638e-02,0.000593731
-1.9635e-02,0.000312481
-1.9632e-02,0.000124981
-1.9629e-02,0.000156231
-1.9626e-02,0.000249981
-1.9622e-02,0.000874981
-1.9619e-02,0.000531231
-1.9616e-02,0.000249981
-1.9613e-02,-9.37691e-05
-1.9610e-02,0.000187481
-1.9606e-02,-0.000125019
-1.9603e-02,-3.12691e-05
-1.9600e-02,-9.37691e-05
-1.9597e-02,-9.37691e-05
-1.9594e-02,0.000281231
-1.9590e-02,6.24809e-05
-1.9587e-02,9.37309e-05
-1.9584e-02,-6.25191e-05
-1.9581e-02,-3.12691e-05
-1.9578e-02,0.000374981
-1.9574e-02,0.000406231
-1.9571e-02,-0.000187519
-1.9568e-02,-9.37691e-05
-1.9565e-02,-1.90735e-08
-1.9562e-02,-1.90735e-08
-1.9558e-02,6.24809e-05
-1.9555e-02,0.000249981
-1.9552e-02,-3.12691e-05
-1.9549e-02,-6.25191e-05
-1.9546e-02,3.12309e-05
-1.9542e-02,0.000687481
-1.9539e-02,0.000468731
-1.9536e-02,0.000312481
-1.9533e-02,0.000124981
-1.9530e-02,0.000343731
-1.9526e-02,3.12309e-05
-1.9523e-02,0.000312481
-1.9520e-02,0.000718731
-1.9517e-02,0.000718731
-1.9514e-02,0.000249981
-1.9510e-02,0.000656231
-1.9507e-02,6.24809e-05
-1.9504e-02,-3.12691e-05
-1.9501e-02,-0.000125019
-1.9498e-02,6.24809e-05
-1.9494e-02,0.000218731
-1.9491e-02,3.12309e-05
-1.9488e-02,-9.37691e-05
-1.9485e-02,3.12309e-05
-1.9482e-02,-3.12691e-05
-1.9478e-02,0.000218731
-1.9475e-02,-3.12691e-05
-1.9472e-02,9.37309e-05
-1.9469e-02,6.24809e-05
-1.9466e-02,-9.37691e-05
-1.9462e-02,-9.37691e-05
-1.9459e-02,-3.12691e-05
-1.9456e-02,3.12309e-05
-1.9453e-02,0.000124981
-1.9450e-02,0.000249981
-1.9446e-02,0.00106248
-1.9443e-02,0.000374981
-1.9440e-02,-6.25191e-05
-1.9437e-02,0.000343731
-1.9434e-02,0.000312481
-1.9430e-02,-3.12691e-05
-1.9427e-02,0.000593731
-1.9424e-02,0.000374981
-1.9421e-02,0.000781231
-1.9418e-02,0.000187481
-1.9414e-02,0.000531231
-1.9411e-02,0.000468731
-1.9408e-02,9.37309e-05
-1.9405e-02,0.000468731
-1.9402e-02,6.24809e-05
-1.9398e-02,0.000406231
-1.9395e-02,0.000281231
-1.9392e-02,9.37309e-05
-1.9389e-02,0.000531231
-1.9386e-02,0.000249981
-1.9382e-02,0.000406231
-1.9379e-02,0.000312481
-1.9376e-02,6.24809e-05
-1.9373e-02,0.000124981
-1.9370e-02,3.12309e-05
-1.9366e-02,-0.000125019
-1.9363e-02,0.000249981
-1.9360e-02,0.000312481
-1.9357e-02,-6.25191e-05
-1.9354e-02,6.24809e-05
-1.9350e-02,0.000531231
-1.9347e-02,-1.90735e-08
-1.9344e-02,3.12309e-05
-1.9341e-02,6.24809e-05
-1.9338e-02,0.000406231
-1.9334e-02,0.000874981
-1.9331e-02,0.000937481
-1.9328e-02,0.00121873
-1.9325e-02,0.000249981
-1.9322e-02,0.000312481
-1.9318e-02,3.12309e-05
-1.9315e-02,0.000218731
-1.9312e-02,0.000406231
-1.9309e-02,0.000124981
-1.9306e-02,0.000656231
-1.9302e-02,0.000187481
-1.9299e-02,0.000656231
-1.9296e-02,0.000437481
-1.9293e-02,0.000218731
-1.9290e-02,0.000718731
-1.9286e-02,0.00112498
-1.9283e-02,0.00218748
-1.9280e-02,0.00221873
-1.9277e-02,0.00140623
-1.9274e-02,0.00124998
-1.9270e-02,-1.90735e-08
-1.9267e-02,-9.37691e-05
-1.9264e-02,-3.12691e-05
-1.9261e-02,-0.000218769
-1.9258e-02,-9.37691e-05
-1.9254e-02,3.12309e-05
-1.9251e-02,-9.37691e-05
-1.9248e-02,0.000312481
-1.9245e-02,0.000593731
-1.9242e-02,6.24809e-05
-1.9238e-02,0.000843731
-1.9235e-02,3.12309e-05
-1.9232e-02,-6.25191e-05
-1.9229e-02,0.000312481
-1.9226e-02,0.000374981
-1.9222e-02,0.000531231
-1.9219e-02,0.000468731
-1.9216e-02,0.000499981
-1.9213e-02,0.000312481
-1.9210e-02,0.000124981
-1.9206e-02,-1.90735e-08
-1.9203e-02,-1.90735e-08
-1.9200e-02,0.000437481
-1.9197e-02,0.000374981
-1.9194e-02,-1.90735e-08
-1.9190e-02,0.000499981
-1.9187e-02,0.000374981
-1.9184e-02,0.000249981
-1.9181e-02,0.000343731
-1.9178e-02,0.000312481
-1.9174e-02,0.000124981
-1.9171e-02,0.000531231
-1.9168e-02,0.000374981
-1.9165e-02,0.000687481
-1.9162e-02,0.00337498
-1.9158e-02,0.00212498
-1.9155e-02,0.00290623
-1.9152e-02,0.000968731
-1.9149e-02,0.000249981
-1.9146e-02,0.000687481
-1.9142e-02,0.000468731
-1.9139e-02,0.00112498
-1.9136e-02,0.00190623
-1.9133e-02,0.000749981
-1.9130e-02,0.000874981
-1.9126e-02,9.37309e-05
-1.9123e-02,-1.90735e-08
-1.9120e-02,0.000531231
-1.9117e-02,0.000531231
-1.9114e-02,3.12309e-05
-1.9110e-02,0.000124981
-1.9107e-02,0.000531231
-1.9104e-02,0.000281231
-1.9101e-02,0.000187481
-1.9098e-02,0.00103123
-1.9094e-02,-3.12691e-05
-1.9091e-02,-9.37691e-05
-1.9088e-02,0.000124981
-1.9085e-02,0.000312481
-1.9082e-02,-3.12691e-05
-1.9078e-02,3.12309e-05
-1.9075e-02,6.24809e-05
-1.9072e-02,6.24809e-05
-1.9069e-02,0.000968731
-1.9066e-02,0.000468731
-1.9062e-02,0.000781231
-1.9059e-02,0.000437481
-1.9056e-02,9.37309e-05
-1.9053e-02,0.000156231
-1.9050e-02,0.000406231
-1.9046e-02,3.12309e-05
-1.9043e-02,0.000406231
-1.9040e-02,0.000249981
-1.9037e-02,-9.37691e-05
-1.9034e-02,0.000249981
-1.9030e-02,0.000968731
-1.9027e-02,0.000281231
-1.9024e-02,0.000187481
-1.9021e-02,0.000156231
-1.9018e-02,0.000812481
-1.9014e-02,0.00112498
-1.9011e-02,0.000687481
-1.9008e-02,0.00109373
-1.9005e-02,0.000531231
-1.9002e-02,0.000406231
-1.8998e-02,0.000406231
-1.8995e-02,0.000187481
-1.8992e-02,0.000937481
-1.8989e-02,0.000562481
-1.8986e-02,0.00137498
-1.8982e-02,0.00140623
-1.8979e-02,0.000437481
-1.8976e-02,0.00249998
-1.8973e-02,0.00115623
-1.8970e-02,0.000749981
-1.8966e-02,0.000874981
